graph 666{
0  [Label = "0 (0.00)"]
1  [Label = "1 (0.00)"]
2  [Label = "2 (0.00)"]
3  [Label = "3 (0.00)"]
4  [Label = "4 (0.00)"]
5  [Label = "5 (0.00)"]
6  [Label = "6 (0.00)"]
7  [Label = "7 (0.00)"]
8  [Label = "8 (0.00)"]
9  [Label = "9 (0.00)"]
10  [Label = "10 (0.00)"]
11  [Label = "11 (0.00)"]
12  [Label = "12 (0.00)"]
13  [Label = "13 (0.00)"]
14  [Label = "14 (0.00)"]
15  [Label = "15 (0.00)"]
16  [Label = "16 (0.00)"]
17  [Label = "17 (0.00)"]
18  [Label = "18 (0.00)"]
19  [Label = "19 (0.00)"]
20  [Label = "20 (0.00)"]
21  [Label = "21 (0.00)"]
22  [Label = "22 (0.00)"]
23  [Label = "23 (0.00)"]
24  [Label = "24 (0.00)"]
25  [Label = "25 (0.00)"]
26  [Label = "26 (0.00)"]
27  [Label = "27 (0.00)"]
28  [Label = "28 (0.00)"]
29  [Label = "29 (0.00)"]
30  [Label = "30 (0.00)"]
31  [Label = "31 (0.00)"]
32  [Label = "32 (0.00)"]
33  [Label = "33 (0.00)"]
34  [Label = "34 (0.00)"]
35  [Label = "35 (0.00)"]
36  [Label = "36 (0.00)"]
37  [Label = "37 (0.00)"]
38  [Label = "38 (0.00)"]
39  [Label = "39 (0.00)"]
40  [Label = "40 (0.00)"]
41  [Label = "41 (0.00)"]
42  [Label = "42 (0.00)"]
43  [Label = "43 (0.00)"]
44  [Label = "44 (0.00)"]
45  [Label = "45 (0.00)"]
46  [Label = "46 (0.00)"]
47  [Label = "47 (0.00)"]
48  [Label = "48 (0.00)"]
49  [Label = "49 (0.00)"]
50  [Label = "50 (0.00)"]
51  [Label = "51 (0.00)"]
52  [Label = "52 (0.00)"]
53  [Label = "53 (0.00)"]
54  [Label = "54 (0.00)"]
55  [Label = "55 (0.00)"]
56  [Label = "56 (0.00)"]
57  [Label = "57 (0.00)"]
58  [Label = "58 (0.00)"]
59  [Label = "59 (0.00)"]
60  [Label = "60 (0.00)"]
61  [Label = "61 (0.00)"]
62  [Label = "62 (0.00)"]
63  [Label = "63 (0.00)"]
64  [Label = "64 (0.00)"]
65  [Label = "65 (0.00)"]
66  [Label = "66 (0.00)"]
67  [Label = "67 (0.00)"]
68  [Label = "68 (0.00)"]
69  [Label = "69 (0.00)"]
70  [Label = "70 (0.00)"]
71  [Label = "71 (0.00)"]
72  [Label = "72 (0.00)"]
73  [Label = "73 (0.00)"]
74  [Label = "74 (0.00)"]
75  [Label = "75 (0.00)"]
76  [Label = "76 (0.00)"]
77  [Label = "77 (0.00)"]
78  [Label = "78 (0.00)"]
79  [Label = "79 (0.00)"]
80  [Label = "80 (0.00)"]
81  [Label = "81 (0.00)"]
82  [Label = "82 (0.00)"]
83  [Label = "83 (0.00)"]
84  [Label = "84 (0.00)"]
85  [Label = "85 (0.00)"]
86  [Label = "86 (0.00)"]
87  [Label = "87 (0.00)"]
88  [Label = "88 (0.00)"]
89  [Label = "89 (0.00)"]
90  [Label = "90 (0.00)"]
91  [Label = "91 (0.00)"]
92  [Label = "92 (0.00)"]
93  [Label = "93 (0.00)"]
94  [Label = "94 (0.00)"]
95  [Label = "95 (0.00)"]
96  [Label = "96 (0.00)"]
97  [Label = "97 (0.00)"]
98  [Label = "98 (0.00)"]
99  [Label = "99 (0.00)"]

0--0  [Label = "0.00"]
0--1  [Label = "0.00"]
0--2  [Label = "0.00"]
0--3  [Label = "0.00"]
0--4  [Label = "0.00"]
0--5  [Label = "0.00"]
0--6  [Label = "0.00"]
0--7  [Label = "0.00"]
0--8  [Label = "0.00"]
0--9  [Label = "0.00"]
0--11  [Label = "0.00"]
0--12  [Label = "0.00"]
0--13  [Label = "0.00"]
0--14  [Label = "0.00"]
0--15  [Label = "0.00"]
0--17  [Label = "0.00"]
0--18  [Label = "0.00"]
0--19  [Label = "0.00"]
0--21  [Label = "0.00"]
0--22  [Label = "0.00"]
0--23  [Label = "0.00"]
0--24  [Label = "0.00"]
0--26  [Label = "0.00"]
0--28  [Label = "0.00"]
0--29  [Label = "0.00"]
0--30  [Label = "0.00"]
0--32  [Label = "0.00"]
0--34  [Label = "0.00"]
0--35  [Label = "0.00"]
0--36  [Label = "0.00"]
0--37  [Label = "0.00"]
0--38  [Label = "0.00"]
0--39  [Label = "0.00"]
0--41  [Label = "0.00"]
0--42  [Label = "0.00"]
0--44  [Label = "0.00"]
0--45  [Label = "0.00"]
0--46  [Label = "0.00"]
0--47  [Label = "0.00"]
0--48  [Label = "0.00"]
0--49  [Label = "0.00"]
0--50  [Label = "0.00"]
0--51  [Label = "0.00"]
0--52  [Label = "0.00"]
0--53  [Label = "0.00"]
0--55  [Label = "0.00"]
0--56  [Label = "0.00"]
0--57  [Label = "0.00"]
0--58  [Label = "0.00"]
0--59  [Label = "0.00"]
0--60  [Label = "0.00"]
0--61  [Label = "0.00"]
0--62  [Label = "0.00"]
0--65  [Label = "0.00"]
0--66  [Label = "0.00"]
0--67  [Label = "0.00"]
0--70  [Label = "0.00"]
0--71  [Label = "0.00"]
0--72  [Label = "0.00"]
0--73  [Label = "0.00"]
0--74  [Label = "0.00"]
0--75  [Label = "0.00"]
0--76  [Label = "0.00"]
0--77  [Label = "0.00"]
0--78  [Label = "0.00"]
0--80  [Label = "0.00"]
0--81  [Label = "0.00"]
0--82  [Label = "0.00"]
0--83  [Label = "0.00"]
0--85  [Label = "0.00"]
0--86  [Label = "0.00"]
0--87  [Label = "0.00"]
0--88  [Label = "0.00"]
0--89  [Label = "0.00"]
0--90  [Label = "0.00"]
0--91  [Label = "0.00"]
0--92  [Label = "0.00"]
0--94  [Label = "0.00"]
0--95  [Label = "0.00"]
0--97  [Label = "0.00"]
0--98  [Label = "0.00"]
0--99  [Label = "0.00"]
1--1  [Label = "0.00"]
1--4  [Label = "0.00"]
1--5  [Label = "0.00"]
1--6  [Label = "0.00"]
1--7  [Label = "0.00"]
1--8  [Label = "0.00"]
1--9  [Label = "0.00"]
1--10  [Label = "0.00"]
1--12  [Label = "0.00"]
1--13  [Label = "0.00"]
1--14  [Label = "0.00"]
1--16  [Label = "0.00"]
1--17  [Label = "0.00"]
1--18  [Label = "0.00"]
1--19  [Label = "0.00"]
1--20  [Label = "0.00"]
1--22  [Label = "0.00"]
1--23  [Label = "0.00"]
1--25  [Label = "0.00"]
1--26  [Label = "0.00"]
1--27  [Label = "0.00"]
1--28  [Label = "0.00"]
1--29  [Label = "0.00"]
1--30  [Label = "0.00"]
1--31  [Label = "0.00"]
1--32  [Label = "0.00"]
1--33  [Label = "0.00"]
1--34  [Label = "0.00"]
1--35  [Label = "0.00"]
1--36  [Label = "0.00"]
1--38  [Label = "0.00"]
1--39  [Label = "0.00"]
1--40  [Label = "0.00"]
1--41  [Label = "0.00"]
1--43  [Label = "0.00"]
1--44  [Label = "0.00"]
1--45  [Label = "0.00"]
1--46  [Label = "0.00"]
1--47  [Label = "0.00"]
1--49  [Label = "0.00"]
1--51  [Label = "0.00"]
1--52  [Label = "0.00"]
1--54  [Label = "0.00"]
1--55  [Label = "0.00"]
1--56  [Label = "0.00"]
1--57  [Label = "0.00"]
1--60  [Label = "0.00"]
1--62  [Label = "0.00"]
1--63  [Label = "0.00"]
1--64  [Label = "0.00"]
1--65  [Label = "0.00"]
1--66  [Label = "0.00"]
1--67  [Label = "0.00"]
1--68  [Label = "0.00"]
1--69  [Label = "0.00"]
1--77  [Label = "0.00"]
1--78  [Label = "0.00"]
1--79  [Label = "0.00"]
1--80  [Label = "0.00"]
1--81  [Label = "0.00"]
1--83  [Label = "0.00"]
1--84  [Label = "0.00"]
1--85  [Label = "0.00"]
1--86  [Label = "0.00"]
1--87  [Label = "0.00"]
1--88  [Label = "0.00"]
1--89  [Label = "0.00"]
1--91  [Label = "0.00"]
1--92  [Label = "0.00"]
1--93  [Label = "0.00"]
1--94  [Label = "0.00"]
1--95  [Label = "0.00"]
1--96  [Label = "0.00"]
1--97  [Label = "0.00"]
1--98  [Label = "0.00"]
1--99  [Label = "0.00"]
2--2  [Label = "0.00"]
2--5  [Label = "0.00"]
2--7  [Label = "0.00"]
2--8  [Label = "0.00"]
2--12  [Label = "0.00"]
2--13  [Label = "0.00"]
2--14  [Label = "0.00"]
2--15  [Label = "0.00"]
2--17  [Label = "0.00"]
2--19  [Label = "0.00"]
2--22  [Label = "0.00"]
2--24  [Label = "0.00"]
2--26  [Label = "0.00"]
2--29  [Label = "0.00"]
2--30  [Label = "0.00"]
2--32  [Label = "0.00"]
2--35  [Label = "0.00"]
2--36  [Label = "0.00"]
2--37  [Label = "0.00"]
2--41  [Label = "0.00"]
2--42  [Label = "0.00"]
2--44  [Label = "0.00"]
2--45  [Label = "0.00"]
2--47  [Label = "0.00"]
2--48  [Label = "0.00"]
2--51  [Label = "0.00"]
2--53  [Label = "0.00"]
2--58  [Label = "0.00"]
2--60  [Label = "0.00"]
2--61  [Label = "0.00"]
2--66  [Label = "0.00"]
2--67  [Label = "0.00"]
2--70  [Label = "0.00"]
2--73  [Label = "0.00"]
2--74  [Label = "0.00"]
2--76  [Label = "0.00"]
2--77  [Label = "0.00"]
2--80  [Label = "0.00"]
2--83  [Label = "0.00"]
2--86  [Label = "0.00"]
2--89  [Label = "0.00"]
2--90  [Label = "0.00"]
2--91  [Label = "0.00"]
2--97  [Label = "0.00"]
2--98  [Label = "0.00"]
3--3  [Label = "0.00"]
3--4  [Label = "0.00"]
3--6  [Label = "0.00"]
3--8  [Label = "0.00"]
3--9  [Label = "0.00"]
3--11  [Label = "0.00"]
3--12  [Label = "0.00"]
3--17  [Label = "0.00"]
3--19  [Label = "0.00"]
3--21  [Label = "0.00"]
3--22  [Label = "0.00"]
3--23  [Label = "0.00"]
3--25  [Label = "0.00"]
3--28  [Label = "0.00"]
3--29  [Label = "0.00"]
3--30  [Label = "0.00"]
3--32  [Label = "0.00"]
3--36  [Label = "0.00"]
3--38  [Label = "0.00"]
3--42  [Label = "0.00"]
3--44  [Label = "0.00"]
3--45  [Label = "0.00"]
3--46  [Label = "0.00"]
3--48  [Label = "0.00"]
3--50  [Label = "0.00"]
3--53  [Label = "0.00"]
3--54  [Label = "0.00"]
3--55  [Label = "0.00"]
3--59  [Label = "0.00"]
3--60  [Label = "0.00"]
3--61  [Label = "0.00"]
3--62  [Label = "0.00"]
3--63  [Label = "0.00"]
3--64  [Label = "0.00"]
3--65  [Label = "0.00"]
3--66  [Label = "0.00"]
3--67  [Label = "0.00"]
3--71  [Label = "0.00"]
3--72  [Label = "0.00"]
3--73  [Label = "0.00"]
3--74  [Label = "0.00"]
3--75  [Label = "0.00"]
3--79  [Label = "0.00"]
3--81  [Label = "0.00"]
3--82  [Label = "0.00"]
3--85  [Label = "0.00"]
3--87  [Label = "0.00"]
3--88  [Label = "0.00"]
3--92  [Label = "0.00"]
3--94  [Label = "0.00"]
3--95  [Label = "0.00"]
3--97  [Label = "0.00"]
4--4  [Label = "0.00"]
4--6  [Label = "0.00"]
4--8  [Label = "0.00"]
4--9  [Label = "0.00"]
4--11  [Label = "0.00"]
4--12  [Label = "0.00"]
4--16  [Label = "0.00"]
4--17  [Label = "0.00"]
4--18  [Label = "0.00"]
4--19  [Label = "0.00"]
4--20  [Label = "0.00"]
4--21  [Label = "0.00"]
4--22  [Label = "0.00"]
4--23  [Label = "0.00"]
4--25  [Label = "0.00"]
4--27  [Label = "0.00"]
4--28  [Label = "0.00"]
4--29  [Label = "0.00"]
4--30  [Label = "0.00"]
4--31  [Label = "0.00"]
4--32  [Label = "0.00"]
4--33  [Label = "0.00"]
4--34  [Label = "0.00"]
4--35  [Label = "0.00"]
4--36  [Label = "0.00"]
4--38  [Label = "0.00"]
4--40  [Label = "0.00"]
4--42  [Label = "0.00"]
4--43  [Label = "0.00"]
4--44  [Label = "0.00"]
4--45  [Label = "0.00"]
4--46  [Label = "0.00"]
4--48  [Label = "0.00"]
4--49  [Label = "0.00"]
4--50  [Label = "0.00"]
4--51  [Label = "0.00"]
4--52  [Label = "0.00"]
4--53  [Label = "0.00"]
4--54  [Label = "0.00"]
4--55  [Label = "0.00"]
4--56  [Label = "0.00"]
4--57  [Label = "0.00"]
4--59  [Label = "0.00"]
4--60  [Label = "0.00"]
4--61  [Label = "0.00"]
4--62  [Label = "0.00"]
4--63  [Label = "0.00"]
4--64  [Label = "0.00"]
4--65  [Label = "0.00"]
4--66  [Label = "0.00"]
4--67  [Label = "0.00"]
4--68  [Label = "0.00"]
4--71  [Label = "0.00"]
4--72  [Label = "0.00"]
4--74  [Label = "0.00"]
4--75  [Label = "0.00"]
4--77  [Label = "0.00"]
4--78  [Label = "0.00"]
4--79  [Label = "0.00"]
4--80  [Label = "0.00"]
4--81  [Label = "0.00"]
4--82  [Label = "0.00"]
4--83  [Label = "0.00"]
4--85  [Label = "0.00"]
4--86  [Label = "0.00"]
4--87  [Label = "0.00"]
4--88  [Label = "0.00"]
4--92  [Label = "0.00"]
4--93  [Label = "0.00"]
4--94  [Label = "0.00"]
4--95  [Label = "0.00"]
4--96  [Label = "0.00"]
4--97  [Label = "0.00"]
4--99  [Label = "0.00"]
5--5  [Label = "0.00"]
5--6  [Label = "0.00"]
5--7  [Label = "0.00"]
5--8  [Label = "0.00"]
5--12  [Label = "0.00"]
5--13  [Label = "0.00"]
5--14  [Label = "0.00"]
5--15  [Label = "0.00"]
5--17  [Label = "0.00"]
5--18  [Label = "0.00"]
5--19  [Label = "0.00"]
5--20  [Label = "0.00"]
5--21  [Label = "0.00"]
5--22  [Label = "0.00"]
5--23  [Label = "0.00"]
5--24  [Label = "0.00"]
5--26  [Label = "0.00"]
5--29  [Label = "0.00"]
5--30  [Label = "0.00"]
5--32  [Label = "0.00"]
5--34  [Label = "0.00"]
5--35  [Label = "0.00"]
5--36  [Label = "0.00"]
5--37  [Label = "0.00"]
5--39  [Label = "0.00"]
5--41  [Label = "0.00"]
5--42  [Label = "0.00"]
5--44  [Label = "0.00"]
5--45  [Label = "0.00"]
5--46  [Label = "0.00"]
5--47  [Label = "0.00"]
5--48  [Label = "0.00"]
5--49  [Label = "0.00"]
5--51  [Label = "0.00"]
5--52  [Label = "0.00"]
5--53  [Label = "0.00"]
5--55  [Label = "0.00"]
5--56  [Label = "0.00"]
5--57  [Label = "0.00"]
5--58  [Label = "0.00"]
5--59  [Label = "0.00"]
5--60  [Label = "0.00"]
5--61  [Label = "0.00"]
5--65  [Label = "0.00"]
5--66  [Label = "0.00"]
5--67  [Label = "0.00"]
5--69  [Label = "0.00"]
5--70  [Label = "0.00"]
5--71  [Label = "0.00"]
5--73  [Label = "0.00"]
5--74  [Label = "0.00"]
5--75  [Label = "0.00"]
5--76  [Label = "0.00"]
5--77  [Label = "0.00"]
5--80  [Label = "0.00"]
5--81  [Label = "0.00"]
5--82  [Label = "0.00"]
5--83  [Label = "0.00"]
5--85  [Label = "0.00"]
5--86  [Label = "0.00"]
5--87  [Label = "0.00"]
5--88  [Label = "0.00"]
5--89  [Label = "0.00"]
5--90  [Label = "0.00"]
5--91  [Label = "0.00"]
5--92  [Label = "0.00"]
5--94  [Label = "0.00"]
5--97  [Label = "0.00"]
5--98  [Label = "0.00"]
5--99  [Label = "0.00"]
6--6  [Label = "0.00"]
6--8  [Label = "0.00"]
6--9  [Label = "0.00"]
6--11  [Label = "0.00"]
6--12  [Label = "0.00"]
6--14  [Label = "0.00"]
6--15  [Label = "0.00"]
6--16  [Label = "0.00"]
6--17  [Label = "0.00"]
6--18  [Label = "0.00"]
6--19  [Label = "0.00"]
6--21  [Label = "0.00"]
6--22  [Label = "0.00"]
6--23  [Label = "0.00"]
6--24  [Label = "0.00"]
6--25  [Label = "0.00"]
6--26  [Label = "0.00"]
6--27  [Label = "0.00"]
6--28  [Label = "0.00"]
6--29  [Label = "0.00"]
6--30  [Label = "0.00"]
6--31  [Label = "0.00"]
6--32  [Label = "0.00"]
6--33  [Label = "0.00"]
6--34  [Label = "0.00"]
6--35  [Label = "0.00"]
6--36  [Label = "0.00"]
6--38  [Label = "0.00"]
6--41  [Label = "0.00"]
6--42  [Label = "0.00"]
6--43  [Label = "0.00"]
6--44  [Label = "0.00"]
6--45  [Label = "0.00"]
6--46  [Label = "0.00"]
6--47  [Label = "0.00"]
6--48  [Label = "0.00"]
6--49  [Label = "0.00"]
6--50  [Label = "0.00"]
6--51  [Label = "0.00"]
6--52  [Label = "0.00"]
6--53  [Label = "0.00"]
6--54  [Label = "0.00"]
6--55  [Label = "0.00"]
6--56  [Label = "0.00"]
6--57  [Label = "0.00"]
6--59  [Label = "0.00"]
6--60  [Label = "0.00"]
6--61  [Label = "0.00"]
6--62  [Label = "0.00"]
6--63  [Label = "0.00"]
6--64  [Label = "0.00"]
6--65  [Label = "0.00"]
6--66  [Label = "0.00"]
6--67  [Label = "0.00"]
6--68  [Label = "0.00"]
6--70  [Label = "0.00"]
6--71  [Label = "0.00"]
6--72  [Label = "0.00"]
6--73  [Label = "0.00"]
6--74  [Label = "0.00"]
6--75  [Label = "0.00"]
6--76  [Label = "0.00"]
6--77  [Label = "0.00"]
6--78  [Label = "0.00"]
6--79  [Label = "0.00"]
6--80  [Label = "0.00"]
6--81  [Label = "0.00"]
6--82  [Label = "0.00"]
6--83  [Label = "0.00"]
6--85  [Label = "0.00"]
6--86  [Label = "0.00"]
6--87  [Label = "0.00"]
6--88  [Label = "0.00"]
6--89  [Label = "0.00"]
6--90  [Label = "0.00"]
6--91  [Label = "0.00"]
6--92  [Label = "0.00"]
6--93  [Label = "0.00"]
6--94  [Label = "0.00"]
6--95  [Label = "0.00"]
6--96  [Label = "0.00"]
6--97  [Label = "0.00"]
6--98  [Label = "0.00"]
6--99  [Label = "0.00"]
7--7  [Label = "0.00"]
7--8  [Label = "0.00"]
7--10  [Label = "0.00"]
7--12  [Label = "0.00"]
7--13  [Label = "0.00"]
7--14  [Label = "0.00"]
7--15  [Label = "0.00"]
7--16  [Label = "0.00"]
7--17  [Label = "0.00"]
7--18  [Label = "0.00"]
7--19  [Label = "0.00"]
7--20  [Label = "0.00"]
7--22  [Label = "0.00"]
7--23  [Label = "0.00"]
7--24  [Label = "0.00"]
7--26  [Label = "0.00"]
7--27  [Label = "0.00"]
7--30  [Label = "0.00"]
7--31  [Label = "0.00"]
7--32  [Label = "0.00"]
7--33  [Label = "0.00"]
7--34  [Label = "0.00"]
7--35  [Label = "0.00"]
7--36  [Label = "0.00"]
7--37  [Label = "0.00"]
7--39  [Label = "0.00"]
7--40  [Label = "0.00"]
7--41  [Label = "0.00"]
7--44  [Label = "0.00"]
7--45  [Label = "0.00"]
7--46  [Label = "0.00"]
7--47  [Label = "0.00"]
7--49  [Label = "0.00"]
7--51  [Label = "0.00"]
7--52  [Label = "0.00"]
7--55  [Label = "0.00"]
7--56  [Label = "0.00"]
7--57  [Label = "0.00"]
7--58  [Label = "0.00"]
7--60  [Label = "0.00"]
7--61  [Label = "0.00"]
7--63  [Label = "0.00"]
7--65  [Label = "0.00"]
7--67  [Label = "0.00"]
7--69  [Label = "0.00"]
7--70  [Label = "0.00"]
7--73  [Label = "0.00"]
7--74  [Label = "0.00"]
7--76  [Label = "0.00"]
7--77  [Label = "0.00"]
7--78  [Label = "0.00"]
7--80  [Label = "0.00"]
7--81  [Label = "0.00"]
7--83  [Label = "0.00"]
7--84  [Label = "0.00"]
7--85  [Label = "0.00"]
7--86  [Label = "0.00"]
7--87  [Label = "0.00"]
7--88  [Label = "0.00"]
7--89  [Label = "0.00"]
7--90  [Label = "0.00"]
7--91  [Label = "0.00"]
7--92  [Label = "0.00"]
7--93  [Label = "0.00"]
7--94  [Label = "0.00"]
7--96  [Label = "0.00"]
7--97  [Label = "0.00"]
7--98  [Label = "0.00"]
7--99  [Label = "0.00"]
8--8  [Label = "0.00"]
8--9  [Label = "0.00"]
8--11  [Label = "0.00"]
8--12  [Label = "0.00"]
8--13  [Label = "0.00"]
8--14  [Label = "0.00"]
8--15  [Label = "0.00"]
8--16  [Label = "0.00"]
8--17  [Label = "0.00"]
8--18  [Label = "0.00"]
8--19  [Label = "0.00"]
8--20  [Label = "0.00"]
8--21  [Label = "0.00"]
8--22  [Label = "0.00"]
8--23  [Label = "0.00"]
8--24  [Label = "0.00"]
8--25  [Label = "0.00"]
8--26  [Label = "0.00"]
8--27  [Label = "0.00"]
8--28  [Label = "0.00"]
8--29  [Label = "0.00"]
8--30  [Label = "0.00"]
8--31  [Label = "0.00"]
8--32  [Label = "0.00"]
8--33  [Label = "0.00"]
8--34  [Label = "0.00"]
8--35  [Label = "0.00"]
8--36  [Label = "0.00"]
8--37  [Label = "0.00"]
8--38  [Label = "0.00"]
8--39  [Label = "0.00"]
8--40  [Label = "0.00"]
8--41  [Label = "0.00"]
8--42  [Label = "0.00"]
8--44  [Label = "0.00"]
8--45  [Label = "0.00"]
8--46  [Label = "0.00"]
8--47  [Label = "0.00"]
8--48  [Label = "0.00"]
8--49  [Label = "0.00"]
8--50  [Label = "0.00"]
8--51  [Label = "0.00"]
8--52  [Label = "0.00"]
8--53  [Label = "0.00"]
8--54  [Label = "0.00"]
8--55  [Label = "0.00"]
8--56  [Label = "0.00"]
8--57  [Label = "0.00"]
8--58  [Label = "0.00"]
8--59  [Label = "0.00"]
8--60  [Label = "0.00"]
8--61  [Label = "0.00"]
8--62  [Label = "0.00"]
8--63  [Label = "0.00"]
8--64  [Label = "0.00"]
8--65  [Label = "0.00"]
8--66  [Label = "0.00"]
8--67  [Label = "0.00"]
8--69  [Label = "0.00"]
8--70  [Label = "0.00"]
8--71  [Label = "0.00"]
8--72  [Label = "0.00"]
8--73  [Label = "0.00"]
8--74  [Label = "0.00"]
8--75  [Label = "0.00"]
8--76  [Label = "0.00"]
8--77  [Label = "0.00"]
8--78  [Label = "0.00"]
8--79  [Label = "0.00"]
8--80  [Label = "0.00"]
8--81  [Label = "0.00"]
8--82  [Label = "0.00"]
8--83  [Label = "0.00"]
8--84  [Label = "0.00"]
8--85  [Label = "0.00"]
8--86  [Label = "0.00"]
8--87  [Label = "0.00"]
8--88  [Label = "0.00"]
8--89  [Label = "0.00"]
8--90  [Label = "0.00"]
8--91  [Label = "0.00"]
8--92  [Label = "0.00"]
8--93  [Label = "0.00"]
8--94  [Label = "0.00"]
8--95  [Label = "0.00"]
8--96  [Label = "0.00"]
8--97  [Label = "0.00"]
8--98  [Label = "0.00"]
8--99  [Label = "0.00"]
9--9  [Label = "0.00"]
9--11  [Label = "0.00"]
9--12  [Label = "0.00"]
9--16  [Label = "0.00"]
9--17  [Label = "0.00"]
9--18  [Label = "0.00"]
9--19  [Label = "0.00"]
9--21  [Label = "0.00"]
9--22  [Label = "0.00"]
9--23  [Label = "0.00"]
9--25  [Label = "0.00"]
9--27  [Label = "0.00"]
9--28  [Label = "0.00"]
9--29  [Label = "0.00"]
9--30  [Label = "0.00"]
9--31  [Label = "0.00"]
9--32  [Label = "0.00"]
9--33  [Label = "0.00"]
9--34  [Label = "0.00"]
9--35  [Label = "0.00"]
9--36  [Label = "0.00"]
9--38  [Label = "0.00"]
9--42  [Label = "0.00"]
9--43  [Label = "0.00"]
9--44  [Label = "0.00"]
9--45  [Label = "0.00"]
9--46  [Label = "0.00"]
9--48  [Label = "0.00"]
9--50  [Label = "0.00"]
9--51  [Label = "0.00"]
9--52  [Label = "0.00"]
9--53  [Label = "0.00"]
9--54  [Label = "0.00"]
9--55  [Label = "0.00"]
9--56  [Label = "0.00"]
9--57  [Label = "0.00"]
9--59  [Label = "0.00"]
9--60  [Label = "0.00"]
9--61  [Label = "0.00"]
9--62  [Label = "0.00"]
9--63  [Label = "0.00"]
9--64  [Label = "0.00"]
9--65  [Label = "0.00"]
9--66  [Label = "0.00"]
9--67  [Label = "0.00"]
9--68  [Label = "0.00"]
9--71  [Label = "0.00"]
9--72  [Label = "0.00"]
9--74  [Label = "0.00"]
9--75  [Label = "0.00"]
9--77  [Label = "0.00"]
9--78  [Label = "0.00"]
9--79  [Label = "0.00"]
9--81  [Label = "0.00"]
9--82  [Label = "0.00"]
9--83  [Label = "0.00"]
9--85  [Label = "0.00"]
9--87  [Label = "0.00"]
9--88  [Label = "0.00"]
9--92  [Label = "0.00"]
9--93  [Label = "0.00"]
9--94  [Label = "0.00"]
9--95  [Label = "0.00"]
9--96  [Label = "0.00"]
9--97  [Label = "0.00"]
9--99  [Label = "0.00"]
10--10  [Label = "0.00"]
10--13  [Label = "0.00"]
10--14  [Label = "0.00"]
10--16  [Label = "0.00"]
10--18  [Label = "0.00"]
10--20  [Label = "0.00"]
10--22  [Label = "0.00"]
10--24  [Label = "0.00"]
10--26  [Label = "0.00"]
10--27  [Label = "0.00"]
10--30  [Label = "0.00"]
10--31  [Label = "0.00"]
10--32  [Label = "0.00"]
10--33  [Label = "0.00"]
10--34  [Label = "0.00"]
10--35  [Label = "0.00"]
10--36  [Label = "0.00"]
10--39  [Label = "0.00"]
10--40  [Label = "0.00"]
10--41  [Label = "0.00"]
10--44  [Label = "0.00"]
10--47  [Label = "0.00"]
10--49  [Label = "0.00"]
10--51  [Label = "0.00"]
10--52  [Label = "0.00"]
10--55  [Label = "0.00"]
10--56  [Label = "0.00"]
10--57  [Label = "0.00"]
10--58  [Label = "0.00"]
10--69  [Label = "0.00"]
10--77  [Label = "0.00"]
10--78  [Label = "0.00"]
10--80  [Label = "0.00"]
10--83  [Label = "0.00"]
10--84  [Label = "0.00"]
10--86  [Label = "0.00"]
10--87  [Label = "0.00"]
10--88  [Label = "0.00"]
10--89  [Label = "0.00"]
10--91  [Label = "0.00"]
10--93  [Label = "0.00"]
10--96  [Label = "0.00"]
10--97  [Label = "0.00"]
10--98  [Label = "0.00"]
10--99  [Label = "0.00"]
11--11  [Label = "0.00"]
11--12  [Label = "0.00"]
11--16  [Label = "0.00"]
11--17  [Label = "0.00"]
11--19  [Label = "0.00"]
11--21  [Label = "0.00"]
11--22  [Label = "0.00"]
11--23  [Label = "0.00"]
11--25  [Label = "0.00"]
11--28  [Label = "0.00"]
11--29  [Label = "0.00"]
11--30  [Label = "0.00"]
11--31  [Label = "0.00"]
11--32  [Label = "0.00"]
11--33  [Label = "0.00"]
11--36  [Label = "0.00"]
11--38  [Label = "0.00"]
11--42  [Label = "0.00"]
11--44  [Label = "0.00"]
11--45  [Label = "0.00"]
11--46  [Label = "0.00"]
11--48  [Label = "0.00"]
11--50  [Label = "0.00"]
11--53  [Label = "0.00"]
11--54  [Label = "0.00"]
11--55  [Label = "0.00"]
11--59  [Label = "0.00"]
11--60  [Label = "0.00"]
11--61  [Label = "0.00"]
11--62  [Label = "0.00"]
11--63  [Label = "0.00"]
11--64  [Label = "0.00"]
11--65  [Label = "0.00"]
11--66  [Label = "0.00"]
11--67  [Label = "0.00"]
11--71  [Label = "0.00"]
11--72  [Label = "0.00"]
11--74  [Label = "0.00"]
11--75  [Label = "0.00"]
11--78  [Label = "0.00"]
11--79  [Label = "0.00"]
11--81  [Label = "0.00"]
11--82  [Label = "0.00"]
11--85  [Label = "0.00"]
11--87  [Label = "0.00"]
11--88  [Label = "0.00"]
11--92  [Label = "0.00"]
11--93  [Label = "0.00"]
11--94  [Label = "0.00"]
11--95  [Label = "0.00"]
11--96  [Label = "0.00"]
11--97  [Label = "0.00"]
11--99  [Label = "0.00"]
12--12  [Label = "0.00"]
12--13  [Label = "0.00"]
12--14  [Label = "0.00"]
12--15  [Label = "0.00"]
12--16  [Label = "0.00"]
12--17  [Label = "0.00"]
12--18  [Label = "0.00"]
12--19  [Label = "0.00"]
12--21  [Label = "0.00"]
12--22  [Label = "0.00"]
12--23  [Label = "0.00"]
12--24  [Label = "0.00"]
12--26  [Label = "0.00"]
12--28  [Label = "0.00"]
12--29  [Label = "0.00"]
12--30  [Label = "0.00"]
12--32  [Label = "0.00"]
12--34  [Label = "0.00"]
12--35  [Label = "0.00"]
12--36  [Label = "0.00"]
12--37  [Label = "0.00"]
12--38  [Label = "0.00"]
12--39  [Label = "0.00"]
12--41  [Label = "0.00"]
12--42  [Label = "0.00"]
12--44  [Label = "0.00"]
12--45  [Label = "0.00"]
12--46  [Label = "0.00"]
12--47  [Label = "0.00"]
12--48  [Label = "0.00"]
12--49  [Label = "0.00"]
12--50  [Label = "0.00"]
12--51  [Label = "0.00"]
12--52  [Label = "0.00"]
12--53  [Label = "0.00"]
12--55  [Label = "0.00"]
12--56  [Label = "0.00"]
12--57  [Label = "0.00"]
12--58  [Label = "0.00"]
12--59  [Label = "0.00"]
12--60  [Label = "0.00"]
12--61  [Label = "0.00"]
12--62  [Label = "0.00"]
12--63  [Label = "0.00"]
12--65  [Label = "0.00"]
12--66  [Label = "0.00"]
12--67  [Label = "0.00"]
12--70  [Label = "0.00"]
12--71  [Label = "0.00"]
12--72  [Label = "0.00"]
12--73  [Label = "0.00"]
12--74  [Label = "0.00"]
12--75  [Label = "0.00"]
12--76  [Label = "0.00"]
12--77  [Label = "0.00"]
12--78  [Label = "0.00"]
12--80  [Label = "0.00"]
12--81  [Label = "0.00"]
12--82  [Label = "0.00"]
12--83  [Label = "0.00"]
12--85  [Label = "0.00"]
12--86  [Label = "0.00"]
12--87  [Label = "0.00"]
12--88  [Label = "0.00"]
12--89  [Label = "0.00"]
12--90  [Label = "0.00"]
12--91  [Label = "0.00"]
12--92  [Label = "0.00"]
12--94  [Label = "0.00"]
12--95  [Label = "0.00"]
12--96  [Label = "0.00"]
12--97  [Label = "0.00"]
12--98  [Label = "0.00"]
12--99  [Label = "0.00"]
13--13  [Label = "0.00"]
13--14  [Label = "0.00"]
13--15  [Label = "0.00"]
13--16  [Label = "0.00"]
13--17  [Label = "0.00"]
13--18  [Label = "0.00"]
13--19  [Label = "0.00"]
13--20  [Label = "0.00"]
13--22  [Label = "0.00"]
13--23  [Label = "0.00"]
13--24  [Label = "0.00"]
13--26  [Label = "0.00"]
13--27  [Label = "0.00"]
13--30  [Label = "0.00"]
13--32  [Label = "0.00"]
13--34  [Label = "0.00"]
13--35  [Label = "0.00"]
13--36  [Label = "0.00"]
13--37  [Label = "0.00"]
13--39  [Label = "0.00"]
13--40  [Label = "0.00"]
13--41  [Label = "0.00"]
13--44  [Label = "0.00"]
13--45  [Label = "0.00"]
13--47  [Label = "0.00"]
13--48  [Label = "0.00"]
13--49  [Label = "0.00"]
13--51  [Label = "0.00"]
13--52  [Label = "0.00"]
13--53  [Label = "0.00"]
13--55  [Label = "0.00"]
13--56  [Label = "0.00"]
13--57  [Label = "0.00"]
13--58  [Label = "0.00"]
13--60  [Label = "0.00"]
13--61  [Label = "0.00"]
13--67  [Label = "0.00"]
13--69  [Label = "0.00"]
13--70  [Label = "0.00"]
13--73  [Label = "0.00"]
13--74  [Label = "0.00"]
13--76  [Label = "0.00"]
13--77  [Label = "0.00"]
13--78  [Label = "0.00"]
13--80  [Label = "0.00"]
13--83  [Label = "0.00"]
13--84  [Label = "0.00"]
13--85  [Label = "0.00"]
13--86  [Label = "0.00"]
13--87  [Label = "0.00"]
13--88  [Label = "0.00"]
13--89  [Label = "0.00"]
13--90  [Label = "0.00"]
13--91  [Label = "0.00"]
13--96  [Label = "0.00"]
13--97  [Label = "0.00"]
13--98  [Label = "0.00"]
13--99  [Label = "0.00"]
14--14  [Label = "0.00"]
14--15  [Label = "0.00"]
14--16  [Label = "0.00"]
14--17  [Label = "0.00"]
14--18  [Label = "0.00"]
14--19  [Label = "0.00"]
14--20  [Label = "0.00"]
14--22  [Label = "0.00"]
14--23  [Label = "0.00"]
14--24  [Label = "0.00"]
14--26  [Label = "0.00"]
14--29  [Label = "0.00"]
14--30  [Label = "0.00"]
14--32  [Label = "0.00"]
14--34  [Label = "0.00"]
14--35  [Label = "0.00"]
14--36  [Label = "0.00"]
14--37  [Label = "0.00"]
14--39  [Label = "0.00"]
14--40  [Label = "0.00"]
14--41  [Label = "0.00"]
14--42  [Label = "0.00"]
14--44  [Label = "0.00"]
14--45  [Label = "0.00"]
14--46  [Label = "0.00"]
14--47  [Label = "0.00"]
14--48  [Label = "0.00"]
14--49  [Label = "0.00"]
14--51  [Label = "0.00"]
14--52  [Label = "0.00"]
14--53  [Label = "0.00"]
14--55  [Label = "0.00"]
14--56  [Label = "0.00"]
14--57  [Label = "0.00"]
14--58  [Label = "0.00"]
14--60  [Label = "0.00"]
14--61  [Label = "0.00"]
14--65  [Label = "0.00"]
14--66  [Label = "0.00"]
14--67  [Label = "0.00"]
14--69  [Label = "0.00"]
14--70  [Label = "0.00"]
14--71  [Label = "0.00"]
14--73  [Label = "0.00"]
14--74  [Label = "0.00"]
14--76  [Label = "0.00"]
14--77  [Label = "0.00"]
14--78  [Label = "0.00"]
14--80  [Label = "0.00"]
14--81  [Label = "0.00"]
14--82  [Label = "0.00"]
14--83  [Label = "0.00"]
14--84  [Label = "0.00"]
14--85  [Label = "0.00"]
14--86  [Label = "0.00"]
14--87  [Label = "0.00"]
14--88  [Label = "0.00"]
14--89  [Label = "0.00"]
14--90  [Label = "0.00"]
14--91  [Label = "0.00"]
14--92  [Label = "0.00"]
14--94  [Label = "0.00"]
14--96  [Label = "0.00"]
14--97  [Label = "0.00"]
14--98  [Label = "0.00"]
14--99  [Label = "0.00"]
15--15  [Label = "0.00"]
15--17  [Label = "0.00"]
15--18  [Label = "0.00"]
15--19  [Label = "0.00"]
15--20  [Label = "0.00"]
15--22  [Label = "0.00"]
15--23  [Label = "0.00"]
15--24  [Label = "0.00"]
15--26  [Label = "0.00"]
15--29  [Label = "0.00"]
15--30  [Label = "0.00"]
15--32  [Label = "0.00"]
15--34  [Label = "0.00"]
15--35  [Label = "0.00"]
15--36  [Label = "0.00"]
15--37  [Label = "0.00"]
15--39  [Label = "0.00"]
15--41  [Label = "0.00"]
15--42  [Label = "0.00"]
15--44  [Label = "0.00"]
15--45  [Label = "0.00"]
15--46  [Label = "0.00"]
15--47  [Label = "0.00"]
15--48  [Label = "0.00"]
15--49  [Label = "0.00"]
15--51  [Label = "0.00"]
15--52  [Label = "0.00"]
15--53  [Label = "0.00"]
15--55  [Label = "0.00"]
15--56  [Label = "0.00"]
15--57  [Label = "0.00"]
15--58  [Label = "0.00"]
15--60  [Label = "0.00"]
15--61  [Label = "0.00"]
15--66  [Label = "0.00"]
15--67  [Label = "0.00"]
15--69  [Label = "0.00"]
15--70  [Label = "0.00"]
15--71  [Label = "0.00"]
15--73  [Label = "0.00"]
15--74  [Label = "0.00"]
15--76  [Label = "0.00"]
15--77  [Label = "0.00"]
15--80  [Label = "0.00"]
15--81  [Label = "0.00"]
15--82  [Label = "0.00"]
15--83  [Label = "0.00"]
15--85  [Label = "0.00"]
15--86  [Label = "0.00"]
15--87  [Label = "0.00"]
15--88  [Label = "0.00"]
15--89  [Label = "0.00"]
15--90  [Label = "0.00"]
15--91  [Label = "0.00"]
15--94  [Label = "0.00"]
15--97  [Label = "0.00"]
15--98  [Label = "0.00"]
16--16  [Label = "0.00"]
16--17  [Label = "0.00"]
16--18  [Label = "0.00"]
16--19  [Label = "0.00"]
16--20  [Label = "0.00"]
16--22  [Label = "0.00"]
16--23  [Label = "0.00"]
16--25  [Label = "0.00"]
16--26  [Label = "0.00"]
16--27  [Label = "0.00"]
16--28  [Label = "0.00"]
16--29  [Label = "0.00"]
16--30  [Label = "0.00"]
16--31  [Label = "0.00"]
16--32  [Label = "0.00"]
16--33  [Label = "0.00"]
16--34  [Label = "0.00"]
16--35  [Label = "0.00"]
16--36  [Label = "0.00"]
16--38  [Label = "0.00"]
16--39  [Label = "0.00"]
16--40  [Label = "0.00"]
16--41  [Label = "0.00"]
16--43  [Label = "0.00"]
16--44  [Label = "0.00"]
16--45  [Label = "0.00"]
16--46  [Label = "0.00"]
16--47  [Label = "0.00"]
16--49  [Label = "0.00"]
16--50  [Label = "0.00"]
16--51  [Label = "0.00"]
16--52  [Label = "0.00"]
16--54  [Label = "0.00"]
16--55  [Label = "0.00"]
16--56  [Label = "0.00"]
16--57  [Label = "0.00"]
16--59  [Label = "0.00"]
16--60  [Label = "0.00"]
16--62  [Label = "0.00"]
16--63  [Label = "0.00"]
16--64  [Label = "0.00"]
16--65  [Label = "0.00"]
16--66  [Label = "0.00"]
16--67  [Label = "0.00"]
16--68  [Label = "0.00"]
16--69  [Label = "0.00"]
16--77  [Label = "0.00"]
16--78  [Label = "0.00"]
16--79  [Label = "0.00"]
16--80  [Label = "0.00"]
16--81  [Label = "0.00"]
16--83  [Label = "0.00"]
16--84  [Label = "0.00"]
16--85  [Label = "0.00"]
16--86  [Label = "0.00"]
16--87  [Label = "0.00"]
16--88  [Label = "0.00"]
16--89  [Label = "0.00"]
16--91  [Label = "0.00"]
16--92  [Label = "0.00"]
16--93  [Label = "0.00"]
16--94  [Label = "0.00"]
16--95  [Label = "0.00"]
16--96  [Label = "0.00"]
16--97  [Label = "0.00"]
16--98  [Label = "0.00"]
16--99  [Label = "0.00"]
17--17  [Label = "0.00"]
17--18  [Label = "0.00"]
17--19  [Label = "0.00"]
17--20  [Label = "0.00"]
17--21  [Label = "0.00"]
17--22  [Label = "0.00"]
17--23  [Label = "0.00"]
17--24  [Label = "0.00"]
17--25  [Label = "0.00"]
17--26  [Label = "0.00"]
17--27  [Label = "0.00"]
17--28  [Label = "0.00"]
17--29  [Label = "0.00"]
17--30  [Label = "0.00"]
17--31  [Label = "0.00"]
17--32  [Label = "0.00"]
17--33  [Label = "0.00"]
17--34  [Label = "0.00"]
17--35  [Label = "0.00"]
17--36  [Label = "0.00"]
17--37  [Label = "0.00"]
17--38  [Label = "0.00"]
17--39  [Label = "0.00"]
17--41  [Label = "0.00"]
17--42  [Label = "0.00"]
17--43  [Label = "0.00"]
17--44  [Label = "0.00"]
17--45  [Label = "0.00"]
17--46  [Label = "0.00"]
17--47  [Label = "0.00"]
17--48  [Label = "0.00"]
17--49  [Label = "0.00"]
17--50  [Label = "0.00"]
17--51  [Label = "0.00"]
17--52  [Label = "0.00"]
17--53  [Label = "0.00"]
17--54  [Label = "0.00"]
17--55  [Label = "0.00"]
17--56  [Label = "0.00"]
17--57  [Label = "0.00"]
17--58  [Label = "0.00"]
17--59  [Label = "0.00"]
17--60  [Label = "0.00"]
17--61  [Label = "0.00"]
17--62  [Label = "0.00"]
17--63  [Label = "0.00"]
17--64  [Label = "0.00"]
17--65  [Label = "0.00"]
17--66  [Label = "0.00"]
17--67  [Label = "0.00"]
17--68  [Label = "0.00"]
17--70  [Label = "0.00"]
17--71  [Label = "0.00"]
17--72  [Label = "0.00"]
17--73  [Label = "0.00"]
17--74  [Label = "0.00"]
17--75  [Label = "0.00"]
17--76  [Label = "0.00"]
17--77  [Label = "0.00"]
17--78  [Label = "0.00"]
17--79  [Label = "0.00"]
17--80  [Label = "0.00"]
17--81  [Label = "0.00"]
17--82  [Label = "0.00"]
17--83  [Label = "0.00"]
17--85  [Label = "0.00"]
17--86  [Label = "0.00"]
17--87  [Label = "0.00"]
17--88  [Label = "0.00"]
17--89  [Label = "0.00"]
17--90  [Label = "0.00"]
17--91  [Label = "0.00"]
17--92  [Label = "0.00"]
17--93  [Label = "0.00"]
17--94  [Label = "0.00"]
17--95  [Label = "0.00"]
17--96  [Label = "0.00"]
17--97  [Label = "0.00"]
17--98  [Label = "0.00"]
17--99  [Label = "0.00"]
18--18  [Label = "0.00"]
18--19  [Label = "0.00"]
18--20  [Label = "0.00"]
18--22  [Label = "0.00"]
18--23  [Label = "0.00"]
18--24  [Label = "0.00"]
18--25  [Label = "0.00"]
18--26  [Label = "0.00"]
18--27  [Label = "0.00"]
18--28  [Label = "0.00"]
18--30  [Label = "0.00"]
18--31  [Label = "0.00"]
18--32  [Label = "0.00"]
18--33  [Label = "0.00"]
18--34  [Label = "0.00"]
18--35  [Label = "0.00"]
18--36  [Label = "0.00"]
18--38  [Label = "0.00"]
18--39  [Label = "0.00"]
18--40  [Label = "0.00"]
18--41  [Label = "0.00"]
18--43  [Label = "0.00"]
18--44  [Label = "0.00"]
18--45  [Label = "0.00"]
18--46  [Label = "0.00"]
18--47  [Label = "0.00"]
18--49  [Label = "0.00"]
18--51  [Label = "0.00"]
18--52  [Label = "0.00"]
18--54  [Label = "0.00"]
18--55  [Label = "0.00"]
18--56  [Label = "0.00"]
18--57  [Label = "0.00"]
18--58  [Label = "0.00"]
18--60  [Label = "0.00"]
18--61  [Label = "0.00"]
18--63  [Label = "0.00"]
18--64  [Label = "0.00"]
18--65  [Label = "0.00"]
18--67  [Label = "0.00"]
18--68  [Label = "0.00"]
18--69  [Label = "0.00"]
18--73  [Label = "0.00"]
18--77  [Label = "0.00"]
18--78  [Label = "0.00"]
18--79  [Label = "0.00"]
18--80  [Label = "0.00"]
18--81  [Label = "0.00"]
18--83  [Label = "0.00"]
18--84  [Label = "0.00"]
18--85  [Label = "0.00"]
18--86  [Label = "0.00"]
18--87  [Label = "0.00"]
18--88  [Label = "0.00"]
18--89  [Label = "0.00"]
18--91  [Label = "0.00"]
18--92  [Label = "0.00"]
18--93  [Label = "0.00"]
18--94  [Label = "0.00"]
18--96  [Label = "0.00"]
18--97  [Label = "0.00"]
18--98  [Label = "0.00"]
18--99  [Label = "0.00"]
19--19  [Label = "0.00"]
19--21  [Label = "0.00"]
19--22  [Label = "0.00"]
19--23  [Label = "0.00"]
19--24  [Label = "0.00"]
19--25  [Label = "0.00"]
19--26  [Label = "0.00"]
19--28  [Label = "0.00"]
19--29  [Label = "0.00"]
19--30  [Label = "0.00"]
19--31  [Label = "0.00"]
19--32  [Label = "0.00"]
19--33  [Label = "0.00"]
19--34  [Label = "0.00"]
19--35  [Label = "0.00"]
19--36  [Label = "0.00"]
19--37  [Label = "0.00"]
19--38  [Label = "0.00"]
19--41  [Label = "0.00"]
19--42  [Label = "0.00"]
19--44  [Label = "0.00"]
19--45  [Label = "0.00"]
19--46  [Label = "0.00"]
19--47  [Label = "0.00"]
19--48  [Label = "0.00"]
19--49  [Label = "0.00"]
19--50  [Label = "0.00"]
19--51  [Label = "0.00"]
19--52  [Label = "0.00"]
19--53  [Label = "0.00"]
19--54  [Label = "0.00"]
19--55  [Label = "0.00"]
19--56  [Label = "0.00"]
19--57  [Label = "0.00"]
19--58  [Label = "0.00"]
19--59  [Label = "0.00"]
19--60  [Label = "0.00"]
19--61  [Label = "0.00"]
19--62  [Label = "0.00"]
19--63  [Label = "0.00"]
19--64  [Label = "0.00"]
19--65  [Label = "0.00"]
19--66  [Label = "0.00"]
19--67  [Label = "0.00"]
19--70  [Label = "0.00"]
19--71  [Label = "0.00"]
19--72  [Label = "0.00"]
19--73  [Label = "0.00"]
19--74  [Label = "0.00"]
19--75  [Label = "0.00"]
19--76  [Label = "0.00"]
19--77  [Label = "0.00"]
19--78  [Label = "0.00"]
19--79  [Label = "0.00"]
19--80  [Label = "0.00"]
19--81  [Label = "0.00"]
19--82  [Label = "0.00"]
19--83  [Label = "0.00"]
19--85  [Label = "0.00"]
19--86  [Label = "0.00"]
19--87  [Label = "0.00"]
19--88  [Label = "0.00"]
19--89  [Label = "0.00"]
19--90  [Label = "0.00"]
19--91  [Label = "0.00"]
19--92  [Label = "0.00"]
19--93  [Label = "0.00"]
19--94  [Label = "0.00"]
19--95  [Label = "0.00"]
19--96  [Label = "0.00"]
19--97  [Label = "0.00"]
19--98  [Label = "0.00"]
19--99  [Label = "0.00"]
20--20  [Label = "0.00"]
20--22  [Label = "0.00"]
20--23  [Label = "0.00"]
20--24  [Label = "0.00"]
20--26  [Label = "0.00"]
20--27  [Label = "0.00"]
20--30  [Label = "0.00"]
20--31  [Label = "0.00"]
20--32  [Label = "0.00"]
20--33  [Label = "0.00"]
20--34  [Label = "0.00"]
20--35  [Label = "0.00"]
20--36  [Label = "0.00"]
20--39  [Label = "0.00"]
20--40  [Label = "0.00"]
20--41  [Label = "0.00"]
20--43  [Label = "0.00"]
20--44  [Label = "0.00"]
20--45  [Label = "0.00"]
20--47  [Label = "0.00"]
20--49  [Label = "0.00"]
20--51  [Label = "0.00"]
20--52  [Label = "0.00"]
20--54  [Label = "0.00"]
20--55  [Label = "0.00"]
20--56  [Label = "0.00"]
20--57  [Label = "0.00"]
20--58  [Label = "0.00"]
20--63  [Label = "0.00"]
20--65  [Label = "0.00"]
20--68  [Label = "0.00"]
20--69  [Label = "0.00"]
20--77  [Label = "0.00"]
20--78  [Label = "0.00"]
20--79  [Label = "0.00"]
20--80  [Label = "0.00"]
20--81  [Label = "0.00"]
20--83  [Label = "0.00"]
20--84  [Label = "0.00"]
20--85  [Label = "0.00"]
20--86  [Label = "0.00"]
20--87  [Label = "0.00"]
20--88  [Label = "0.00"]
20--89  [Label = "0.00"]
20--91  [Label = "0.00"]
20--92  [Label = "0.00"]
20--93  [Label = "0.00"]
20--96  [Label = "0.00"]
20--97  [Label = "0.00"]
20--98  [Label = "0.00"]
20--99  [Label = "0.00"]
21--21  [Label = "0.00"]
21--22  [Label = "0.00"]
21--23  [Label = "0.00"]
21--25  [Label = "0.00"]
21--28  [Label = "0.00"]
21--29  [Label = "0.00"]
21--30  [Label = "0.00"]
21--32  [Label = "0.00"]
21--35  [Label = "0.00"]
21--36  [Label = "0.00"]
21--38  [Label = "0.00"]
21--42  [Label = "0.00"]
21--44  [Label = "0.00"]
21--45  [Label = "0.00"]
21--46  [Label = "0.00"]
21--48  [Label = "0.00"]
21--50  [Label = "0.00"]
21--53  [Label = "0.00"]
21--54  [Label = "0.00"]
21--55  [Label = "0.00"]
21--59  [Label = "0.00"]
21--60  [Label = "0.00"]
21--61  [Label = "0.00"]
21--62  [Label = "0.00"]
21--63  [Label = "0.00"]
21--64  [Label = "0.00"]
21--65  [Label = "0.00"]
21--66  [Label = "0.00"]
21--67  [Label = "0.00"]
21--70  [Label = "0.00"]
21--71  [Label = "0.00"]
21--72  [Label = "0.00"]
21--73  [Label = "0.00"]
21--74  [Label = "0.00"]
21--75  [Label = "0.00"]
21--78  [Label = "0.00"]
21--79  [Label = "0.00"]
21--81  [Label = "0.00"]
21--82  [Label = "0.00"]
21--85  [Label = "0.00"]
21--87  [Label = "0.00"]
21--88  [Label = "0.00"]
21--92  [Label = "0.00"]
21--94  [Label = "0.00"]
21--95  [Label = "0.00"]
21--97  [Label = "0.00"]
22--22  [Label = "0.00"]
22--23  [Label = "0.00"]
22--24  [Label = "0.00"]
22--25  [Label = "0.00"]
22--26  [Label = "0.00"]
22--27  [Label = "0.00"]
22--28  [Label = "0.00"]
22--29  [Label = "0.00"]
22--30  [Label = "0.00"]
22--31  [Label = "0.00"]
22--32  [Label = "0.00"]
22--33  [Label = "0.00"]
22--34  [Label = "0.00"]
22--35  [Label = "0.00"]
22--36  [Label = "0.00"]
22--37  [Label = "0.00"]
22--38  [Label = "0.00"]
22--39  [Label = "0.00"]
22--40  [Label = "0.00"]
22--41  [Label = "0.00"]
22--42  [Label = "0.00"]
22--43  [Label = "0.00"]
22--44  [Label = "0.00"]
22--45  [Label = "0.00"]
22--46  [Label = "0.00"]
22--47  [Label = "0.00"]
22--48  [Label = "0.00"]
22--49  [Label = "0.00"]
22--50  [Label = "0.00"]
22--51  [Label = "0.00"]
22--52  [Label = "0.00"]
22--53  [Label = "0.00"]
22--54  [Label = "0.00"]
22--55  [Label = "0.00"]
22--56  [Label = "0.00"]
22--57  [Label = "0.00"]
22--58  [Label = "0.00"]
22--59  [Label = "0.00"]
22--60  [Label = "0.00"]
22--61  [Label = "0.00"]
22--62  [Label = "0.00"]
22--63  [Label = "0.00"]
22--64  [Label = "0.00"]
22--65  [Label = "0.00"]
22--66  [Label = "0.00"]
22--67  [Label = "0.00"]
22--68  [Label = "0.00"]
22--69  [Label = "0.00"]
22--70  [Label = "0.00"]
22--71  [Label = "0.00"]
22--72  [Label = "0.00"]
22--73  [Label = "0.00"]
22--74  [Label = "0.00"]
22--75  [Label = "0.00"]
22--76  [Label = "0.00"]
22--77  [Label = "0.00"]
22--78  [Label = "0.00"]
22--79  [Label = "0.00"]
22--80  [Label = "0.00"]
22--81  [Label = "0.00"]
22--82  [Label = "0.00"]
22--83  [Label = "0.00"]
22--84  [Label = "0.00"]
22--85  [Label = "0.00"]
22--86  [Label = "0.00"]
22--87  [Label = "0.00"]
22--88  [Label = "0.00"]
22--89  [Label = "0.00"]
22--90  [Label = "0.00"]
22--91  [Label = "0.00"]
22--92  [Label = "0.00"]
22--93  [Label = "0.00"]
22--94  [Label = "0.00"]
22--95  [Label = "0.00"]
22--96  [Label = "0.00"]
22--97  [Label = "0.00"]
22--98  [Label = "0.00"]
22--99  [Label = "0.00"]
23--23  [Label = "0.00"]
23--24  [Label = "0.00"]
23--25  [Label = "0.00"]
23--26  [Label = "0.00"]
23--27  [Label = "0.00"]
23--28  [Label = "0.00"]
23--29  [Label = "0.00"]
23--30  [Label = "0.00"]
23--31  [Label = "0.00"]
23--32  [Label = "0.00"]
23--33  [Label = "0.00"]
23--34  [Label = "0.00"]
23--35  [Label = "0.00"]
23--36  [Label = "0.00"]
23--38  [Label = "0.00"]
23--39  [Label = "0.00"]
23--40  [Label = "0.00"]
23--41  [Label = "0.00"]
23--42  [Label = "0.00"]
23--43  [Label = "0.00"]
23--44  [Label = "0.00"]
23--45  [Label = "0.00"]
23--46  [Label = "0.00"]
23--47  [Label = "0.00"]
23--48  [Label = "0.00"]
23--49  [Label = "0.00"]
23--50  [Label = "0.00"]
23--51  [Label = "0.00"]
23--52  [Label = "0.00"]
23--53  [Label = "0.00"]
23--54  [Label = "0.00"]
23--55  [Label = "0.00"]
23--56  [Label = "0.00"]
23--57  [Label = "0.00"]
23--58  [Label = "0.00"]
23--59  [Label = "0.00"]
23--60  [Label = "0.00"]
23--61  [Label = "0.00"]
23--62  [Label = "0.00"]
23--63  [Label = "0.00"]
23--64  [Label = "0.00"]
23--65  [Label = "0.00"]
23--66  [Label = "0.00"]
23--67  [Label = "0.00"]
23--68  [Label = "0.00"]
23--69  [Label = "0.00"]
23--70  [Label = "0.00"]
23--71  [Label = "0.00"]
23--72  [Label = "0.00"]
23--73  [Label = "0.00"]
23--74  [Label = "0.00"]
23--75  [Label = "0.00"]
23--76  [Label = "0.00"]
23--77  [Label = "0.00"]
23--78  [Label = "0.00"]
23--79  [Label = "0.00"]
23--80  [Label = "0.00"]
23--81  [Label = "0.00"]
23--82  [Label = "0.00"]
23--83  [Label = "0.00"]
23--84  [Label = "0.00"]
23--85  [Label = "0.00"]
23--86  [Label = "0.00"]
23--87  [Label = "0.00"]
23--88  [Label = "0.00"]
23--89  [Label = "0.00"]
23--90  [Label = "0.00"]
23--91  [Label = "0.00"]
23--92  [Label = "0.00"]
23--93  [Label = "0.00"]
23--94  [Label = "0.00"]
23--95  [Label = "0.00"]
23--96  [Label = "0.00"]
23--97  [Label = "0.00"]
23--98  [Label = "0.00"]
23--99  [Label = "0.00"]
24--24  [Label = "0.00"]
24--26  [Label = "0.00"]
24--29  [Label = "0.00"]
24--30  [Label = "0.00"]
24--32  [Label = "0.00"]
24--35  [Label = "0.00"]
24--36  [Label = "0.00"]
24--37  [Label = "0.00"]
24--39  [Label = "0.00"]
24--41  [Label = "0.00"]
24--42  [Label = "0.00"]
24--44  [Label = "0.00"]
24--45  [Label = "0.00"]
24--47  [Label = "0.00"]
24--48  [Label = "0.00"]
24--49  [Label = "0.00"]
24--51  [Label = "0.00"]
24--52  [Label = "0.00"]
24--53  [Label = "0.00"]
24--55  [Label = "0.00"]
24--56  [Label = "0.00"]
24--57  [Label = "0.00"]
24--58  [Label = "0.00"]
24--60  [Label = "0.00"]
24--61  [Label = "0.00"]
24--66  [Label = "0.00"]
24--67  [Label = "0.00"]
24--69  [Label = "0.00"]
24--70  [Label = "0.00"]
24--73  [Label = "0.00"]
24--74  [Label = "0.00"]
24--76  [Label = "0.00"]
24--77  [Label = "0.00"]
24--80  [Label = "0.00"]
24--83  [Label = "0.00"]
24--85  [Label = "0.00"]
24--86  [Label = "0.00"]
24--87  [Label = "0.00"]
24--88  [Label = "0.00"]
24--89  [Label = "0.00"]
24--90  [Label = "0.00"]
24--91  [Label = "0.00"]
24--94  [Label = "0.00"]
24--97  [Label = "0.00"]
24--98  [Label = "0.00"]
25--25  [Label = "0.00"]
25--27  [Label = "0.00"]
25--28  [Label = "0.00"]
25--29  [Label = "0.00"]
25--30  [Label = "0.00"]
25--31  [Label = "0.00"]
25--32  [Label = "0.00"]
25--33  [Label = "0.00"]
25--34  [Label = "0.00"]
25--35  [Label = "0.00"]
25--36  [Label = "0.00"]
25--38  [Label = "0.00"]
25--40  [Label = "0.00"]
25--42  [Label = "0.00"]
25--43  [Label = "0.00"]
25--44  [Label = "0.00"]
25--45  [Label = "0.00"]
25--46  [Label = "0.00"]
25--49  [Label = "0.00"]
25--50  [Label = "0.00"]
25--51  [Label = "0.00"]
25--52  [Label = "0.00"]
25--54  [Label = "0.00"]
25--55  [Label = "0.00"]
25--56  [Label = "0.00"]
25--57  [Label = "0.00"]
25--59  [Label = "0.00"]
25--60  [Label = "0.00"]
25--62  [Label = "0.00"]
25--63  [Label = "0.00"]
25--64  [Label = "0.00"]
25--65  [Label = "0.00"]
25--66  [Label = "0.00"]
25--67  [Label = "0.00"]
25--68  [Label = "0.00"]
25--71  [Label = "0.00"]
25--72  [Label = "0.00"]
25--75  [Label = "0.00"]
25--77  [Label = "0.00"]
25--78  [Label = "0.00"]
25--79  [Label = "0.00"]
25--80  [Label = "0.00"]
25--81  [Label = "0.00"]
25--82  [Label = "0.00"]
25--83  [Label = "0.00"]
25--85  [Label = "0.00"]
25--86  [Label = "0.00"]
25--87  [Label = "0.00"]
25--88  [Label = "0.00"]
25--92  [Label = "0.00"]
25--93  [Label = "0.00"]
25--94  [Label = "0.00"]
25--95  [Label = "0.00"]
25--96  [Label = "0.00"]
25--97  [Label = "0.00"]
25--99  [Label = "0.00"]
26--26  [Label = "0.00"]
26--27  [Label = "0.00"]
26--30  [Label = "0.00"]
26--31  [Label = "0.00"]
26--32  [Label = "0.00"]
26--33  [Label = "0.00"]
26--34  [Label = "0.00"]
26--35  [Label = "0.00"]
26--36  [Label = "0.00"]
26--37  [Label = "0.00"]
26--39  [Label = "0.00"]
26--40  [Label = "0.00"]
26--41  [Label = "0.00"]
26--44  [Label = "0.00"]
26--45  [Label = "0.00"]
26--46  [Label = "0.00"]
26--47  [Label = "0.00"]
26--48  [Label = "0.00"]
26--49  [Label = "0.00"]
26--51  [Label = "0.00"]
26--52  [Label = "0.00"]
26--53  [Label = "0.00"]
26--55  [Label = "0.00"]
26--56  [Label = "0.00"]
26--57  [Label = "0.00"]
26--58  [Label = "0.00"]
26--60  [Label = "0.00"]
26--61  [Label = "0.00"]
26--63  [Label = "0.00"]
26--65  [Label = "0.00"]
26--66  [Label = "0.00"]
26--67  [Label = "0.00"]
26--69  [Label = "0.00"]
26--70  [Label = "0.00"]
26--73  [Label = "0.00"]
26--74  [Label = "0.00"]
26--76  [Label = "0.00"]
26--77  [Label = "0.00"]
26--78  [Label = "0.00"]
26--80  [Label = "0.00"]
26--81  [Label = "0.00"]
26--83  [Label = "0.00"]
26--84  [Label = "0.00"]
26--85  [Label = "0.00"]
26--86  [Label = "0.00"]
26--87  [Label = "0.00"]
26--88  [Label = "0.00"]
26--89  [Label = "0.00"]
26--90  [Label = "0.00"]
26--91  [Label = "0.00"]
26--92  [Label = "0.00"]
26--93  [Label = "0.00"]
26--94  [Label = "0.00"]
26--96  [Label = "0.00"]
26--97  [Label = "0.00"]
26--98  [Label = "0.00"]
26--99  [Label = "0.00"]
27--27  [Label = "0.00"]
27--28  [Label = "0.00"]
27--30  [Label = "0.00"]
27--31  [Label = "0.00"]
27--32  [Label = "0.00"]
27--33  [Label = "0.00"]
27--34  [Label = "0.00"]
27--35  [Label = "0.00"]
27--36  [Label = "0.00"]
27--38  [Label = "0.00"]
27--39  [Label = "0.00"]
27--40  [Label = "0.00"]
27--41  [Label = "0.00"]
27--43  [Label = "0.00"]
27--44  [Label = "0.00"]
27--45  [Label = "0.00"]
27--46  [Label = "0.00"]
27--47  [Label = "0.00"]
27--49  [Label = "0.00"]
27--51  [Label = "0.00"]
27--52  [Label = "0.00"]
27--54  [Label = "0.00"]
27--55  [Label = "0.00"]
27--56  [Label = "0.00"]
27--57  [Label = "0.00"]
27--60  [Label = "0.00"]
27--62  [Label = "0.00"]
27--63  [Label = "0.00"]
27--64  [Label = "0.00"]
27--65  [Label = "0.00"]
27--67  [Label = "0.00"]
27--68  [Label = "0.00"]
27--69  [Label = "0.00"]
27--77  [Label = "0.00"]
27--78  [Label = "0.00"]
27--79  [Label = "0.00"]
27--80  [Label = "0.00"]
27--81  [Label = "0.00"]
27--83  [Label = "0.00"]
27--84  [Label = "0.00"]
27--85  [Label = "0.00"]
27--86  [Label = "0.00"]
27--87  [Label = "0.00"]
27--88  [Label = "0.00"]
27--89  [Label = "0.00"]
27--91  [Label = "0.00"]
27--92  [Label = "0.00"]
27--93  [Label = "0.00"]
27--94  [Label = "0.00"]
27--96  [Label = "0.00"]
27--97  [Label = "0.00"]
27--98  [Label = "0.00"]
27--99  [Label = "0.00"]
28--28  [Label = "0.00"]
28--29  [Label = "0.00"]
28--30  [Label = "0.00"]
28--31  [Label = "0.00"]
28--32  [Label = "0.00"]
28--33  [Label = "0.00"]
28--34  [Label = "0.00"]
28--35  [Label = "0.00"]
28--36  [Label = "0.00"]
28--38  [Label = "0.00"]
28--42  [Label = "0.00"]
28--43  [Label = "0.00"]
28--44  [Label = "0.00"]
28--45  [Label = "0.00"]
28--46  [Label = "0.00"]
28--48  [Label = "0.00"]
28--50  [Label = "0.00"]
28--51  [Label = "0.00"]
28--52  [Label = "0.00"]
28--53  [Label = "0.00"]
28--54  [Label = "0.00"]
28--55  [Label = "0.00"]
28--56  [Label = "0.00"]
28--57  [Label = "0.00"]
28--59  [Label = "0.00"]
28--60  [Label = "0.00"]
28--61  [Label = "0.00"]
28--62  [Label = "0.00"]
28--63  [Label = "0.00"]
28--64  [Label = "0.00"]
28--65  [Label = "0.00"]
28--66  [Label = "0.00"]
28--67  [Label = "0.00"]
28--68  [Label = "0.00"]
28--71  [Label = "0.00"]
28--72  [Label = "0.00"]
28--74  [Label = "0.00"]
28--75  [Label = "0.00"]
28--77  [Label = "0.00"]
28--78  [Label = "0.00"]
28--79  [Label = "0.00"]
28--81  [Label = "0.00"]
28--82  [Label = "0.00"]
28--83  [Label = "0.00"]
28--85  [Label = "0.00"]
28--87  [Label = "0.00"]
28--88  [Label = "0.00"]
28--92  [Label = "0.00"]
28--93  [Label = "0.00"]
28--94  [Label = "0.00"]
28--95  [Label = "0.00"]
28--96  [Label = "0.00"]
28--97  [Label = "0.00"]
28--99  [Label = "0.00"]
29--29  [Label = "0.00"]
29--30  [Label = "0.00"]
29--31  [Label = "0.00"]
29--32  [Label = "0.00"]
29--33  [Label = "0.00"]
29--34  [Label = "0.00"]
29--35  [Label = "0.00"]
29--36  [Label = "0.00"]
29--37  [Label = "0.00"]
29--38  [Label = "0.00"]
29--42  [Label = "0.00"]
29--44  [Label = "0.00"]
29--45  [Label = "0.00"]
29--46  [Label = "0.00"]
29--48  [Label = "0.00"]
29--50  [Label = "0.00"]
29--51  [Label = "0.00"]
29--53  [Label = "0.00"]
29--54  [Label = "0.00"]
29--55  [Label = "0.00"]
29--56  [Label = "0.00"]
29--57  [Label = "0.00"]
29--58  [Label = "0.00"]
29--59  [Label = "0.00"]
29--60  [Label = "0.00"]
29--61  [Label = "0.00"]
29--62  [Label = "0.00"]
29--63  [Label = "0.00"]
29--64  [Label = "0.00"]
29--65  [Label = "0.00"]
29--66  [Label = "0.00"]
29--67  [Label = "0.00"]
29--70  [Label = "0.00"]
29--71  [Label = "0.00"]
29--72  [Label = "0.00"]
29--73  [Label = "0.00"]
29--74  [Label = "0.00"]
29--75  [Label = "0.00"]
29--76  [Label = "0.00"]
29--77  [Label = "0.00"]
29--78  [Label = "0.00"]
29--79  [Label = "0.00"]
29--81  [Label = "0.00"]
29--82  [Label = "0.00"]
29--83  [Label = "0.00"]
29--85  [Label = "0.00"]
29--86  [Label = "0.00"]
29--87  [Label = "0.00"]
29--88  [Label = "0.00"]
29--90  [Label = "0.00"]
29--91  [Label = "0.00"]
29--92  [Label = "0.00"]
29--93  [Label = "0.00"]
29--94  [Label = "0.00"]
29--95  [Label = "0.00"]
29--96  [Label = "0.00"]
29--97  [Label = "0.00"]
29--98  [Label = "0.00"]
29--99  [Label = "0.00"]
30--30  [Label = "0.00"]
30--31  [Label = "0.00"]
30--32  [Label = "0.00"]
30--33  [Label = "0.00"]
30--34  [Label = "0.00"]
30--35  [Label = "0.00"]
30--36  [Label = "0.00"]
30--38  [Label = "0.00"]
30--39  [Label = "0.00"]
30--40  [Label = "0.00"]
30--41  [Label = "0.00"]
30--42  [Label = "0.00"]
30--43  [Label = "0.00"]
30--44  [Label = "0.00"]
30--45  [Label = "0.00"]
30--46  [Label = "0.00"]
30--47  [Label = "0.00"]
30--48  [Label = "0.00"]
30--49  [Label = "0.00"]
30--50  [Label = "0.00"]
30--51  [Label = "0.00"]
30--52  [Label = "0.00"]
30--53  [Label = "0.00"]
30--54  [Label = "0.00"]
30--55  [Label = "0.00"]
30--56  [Label = "0.00"]
30--57  [Label = "0.00"]
30--58  [Label = "0.00"]
30--59  [Label = "0.00"]
30--60  [Label = "0.00"]
30--61  [Label = "0.00"]
30--62  [Label = "0.00"]
30--63  [Label = "0.00"]
30--64  [Label = "0.00"]
30--65  [Label = "0.00"]
30--66  [Label = "0.00"]
30--67  [Label = "0.00"]
30--68  [Label = "0.00"]
30--69  [Label = "0.00"]
30--70  [Label = "0.00"]
30--71  [Label = "0.00"]
30--72  [Label = "0.00"]
30--73  [Label = "0.00"]
30--74  [Label = "0.00"]
30--75  [Label = "0.00"]
30--76  [Label = "0.00"]
30--77  [Label = "0.00"]
30--78  [Label = "0.00"]
30--79  [Label = "0.00"]
30--80  [Label = "0.00"]
30--81  [Label = "0.00"]
30--82  [Label = "0.00"]
30--83  [Label = "0.00"]
30--84  [Label = "0.00"]
30--85  [Label = "0.00"]
30--86  [Label = "0.00"]
30--87  [Label = "0.00"]
30--88  [Label = "0.00"]
30--89  [Label = "0.00"]
30--90  [Label = "0.00"]
30--91  [Label = "0.00"]
30--92  [Label = "0.00"]
30--93  [Label = "0.00"]
30--94  [Label = "0.00"]
30--95  [Label = "0.00"]
30--96  [Label = "0.00"]
30--97  [Label = "0.00"]
30--98  [Label = "0.00"]
30--99  [Label = "0.00"]
31--31  [Label = "0.00"]
31--32  [Label = "0.00"]
31--33  [Label = "0.00"]
31--34  [Label = "0.00"]
31--35  [Label = "0.00"]
31--36  [Label = "0.00"]
31--38  [Label = "0.00"]
31--39  [Label = "0.00"]
31--40  [Label = "0.00"]
31--41  [Label = "0.00"]
31--43  [Label = "0.00"]
31--44  [Label = "0.00"]
31--45  [Label = "0.00"]
31--46  [Label = "0.00"]
31--47  [Label = "0.00"]
31--49  [Label = "0.00"]
31--50  [Label = "0.00"]
31--51  [Label = "0.00"]
31--52  [Label = "0.00"]
31--54  [Label = "0.00"]
31--55  [Label = "0.00"]
31--56  [Label = "0.00"]
31--57  [Label = "0.00"]
31--59  [Label = "0.00"]
31--60  [Label = "0.00"]
31--62  [Label = "0.00"]
31--63  [Label = "0.00"]
31--64  [Label = "0.00"]
31--65  [Label = "0.00"]
31--66  [Label = "0.00"]
31--67  [Label = "0.00"]
31--68  [Label = "0.00"]
31--69  [Label = "0.00"]
31--77  [Label = "0.00"]
31--78  [Label = "0.00"]
31--79  [Label = "0.00"]
31--80  [Label = "0.00"]
31--81  [Label = "0.00"]
31--82  [Label = "0.00"]
31--83  [Label = "0.00"]
31--84  [Label = "0.00"]
31--85  [Label = "0.00"]
31--86  [Label = "0.00"]
31--87  [Label = "0.00"]
31--88  [Label = "0.00"]
31--92  [Label = "0.00"]
31--93  [Label = "0.00"]
31--94  [Label = "0.00"]
31--95  [Label = "0.00"]
31--96  [Label = "0.00"]
31--97  [Label = "0.00"]
31--99  [Label = "0.00"]
32--32  [Label = "0.00"]
32--33  [Label = "0.00"]
32--34  [Label = "0.00"]
32--35  [Label = "0.00"]
32--36  [Label = "0.00"]
32--37  [Label = "0.00"]
32--38  [Label = "0.00"]
32--39  [Label = "0.00"]
32--40  [Label = "0.00"]
32--41  [Label = "0.00"]
32--42  [Label = "0.00"]
32--43  [Label = "0.00"]
32--44  [Label = "0.00"]
32--45  [Label = "0.00"]
32--46  [Label = "0.00"]
32--47  [Label = "0.00"]
32--48  [Label = "0.00"]
32--49  [Label = "0.00"]
32--50  [Label = "0.00"]
32--51  [Label = "0.00"]
32--52  [Label = "0.00"]
32--53  [Label = "0.00"]
32--54  [Label = "0.00"]
32--55  [Label = "0.00"]
32--56  [Label = "0.00"]
32--57  [Label = "0.00"]
32--58  [Label = "0.00"]
32--59  [Label = "0.00"]
32--60  [Label = "0.00"]
32--61  [Label = "0.00"]
32--62  [Label = "0.00"]
32--63  [Label = "0.00"]
32--64  [Label = "0.00"]
32--65  [Label = "0.00"]
32--66  [Label = "0.00"]
32--67  [Label = "0.00"]
32--68  [Label = "0.00"]
32--69  [Label = "0.00"]
32--70  [Label = "0.00"]
32--71  [Label = "0.00"]
32--72  [Label = "0.00"]
32--73  [Label = "0.00"]
32--74  [Label = "0.00"]
32--75  [Label = "0.00"]
32--76  [Label = "0.00"]
32--77  [Label = "0.00"]
32--78  [Label = "0.00"]
32--79  [Label = "0.00"]
32--80  [Label = "0.00"]
32--81  [Label = "0.00"]
32--82  [Label = "0.00"]
32--83  [Label = "0.00"]
32--84  [Label = "0.00"]
32--85  [Label = "0.00"]
32--86  [Label = "0.00"]
32--87  [Label = "0.00"]
32--88  [Label = "0.00"]
32--89  [Label = "0.00"]
32--90  [Label = "0.00"]
32--91  [Label = "0.00"]
32--92  [Label = "0.00"]
32--93  [Label = "0.00"]
32--94  [Label = "0.00"]
32--95  [Label = "0.00"]
32--96  [Label = "0.00"]
32--97  [Label = "0.00"]
32--98  [Label = "0.00"]
32--99  [Label = "0.00"]
33--33  [Label = "0.00"]
33--34  [Label = "0.00"]
33--35  [Label = "0.00"]
33--36  [Label = "0.00"]
33--38  [Label = "0.00"]
33--39  [Label = "0.00"]
33--40  [Label = "0.00"]
33--41  [Label = "0.00"]
33--43  [Label = "0.00"]
33--44  [Label = "0.00"]
33--45  [Label = "0.00"]
33--46  [Label = "0.00"]
33--47  [Label = "0.00"]
33--49  [Label = "0.00"]
33--50  [Label = "0.00"]
33--51  [Label = "0.00"]
33--52  [Label = "0.00"]
33--54  [Label = "0.00"]
33--55  [Label = "0.00"]
33--56  [Label = "0.00"]
33--57  [Label = "0.00"]
33--60  [Label = "0.00"]
33--62  [Label = "0.00"]
33--63  [Label = "0.00"]
33--64  [Label = "0.00"]
33--65  [Label = "0.00"]
33--67  [Label = "0.00"]
33--68  [Label = "0.00"]
33--69  [Label = "0.00"]
33--77  [Label = "0.00"]
33--78  [Label = "0.00"]
33--79  [Label = "0.00"]
33--80  [Label = "0.00"]
33--81  [Label = "0.00"]
33--83  [Label = "0.00"]
33--84  [Label = "0.00"]
33--85  [Label = "0.00"]
33--86  [Label = "0.00"]
33--87  [Label = "0.00"]
33--88  [Label = "0.00"]
33--91  [Label = "0.00"]
33--92  [Label = "0.00"]
33--93  [Label = "0.00"]
33--94  [Label = "0.00"]
33--95  [Label = "0.00"]
33--96  [Label = "0.00"]
33--97  [Label = "0.00"]
33--99  [Label = "0.00"]
34--34  [Label = "0.00"]
34--35  [Label = "0.00"]
34--36  [Label = "0.00"]
34--38  [Label = "0.00"]
34--39  [Label = "0.00"]
34--40  [Label = "0.00"]
34--41  [Label = "0.00"]
34--43  [Label = "0.00"]
34--44  [Label = "0.00"]
34--45  [Label = "0.00"]
34--46  [Label = "0.00"]
34--47  [Label = "0.00"]
34--49  [Label = "0.00"]
34--51  [Label = "0.00"]
34--52  [Label = "0.00"]
34--54  [Label = "0.00"]
34--55  [Label = "0.00"]
34--56  [Label = "0.00"]
34--57  [Label = "0.00"]
34--58  [Label = "0.00"]
34--60  [Label = "0.00"]
34--61  [Label = "0.00"]
34--62  [Label = "0.00"]
34--63  [Label = "0.00"]
34--64  [Label = "0.00"]
34--65  [Label = "0.00"]
34--66  [Label = "0.00"]
34--67  [Label = "0.00"]
34--68  [Label = "0.00"]
34--69  [Label = "0.00"]
34--73  [Label = "0.00"]
34--77  [Label = "0.00"]
34--78  [Label = "0.00"]
34--79  [Label = "0.00"]
34--80  [Label = "0.00"]
34--81  [Label = "0.00"]
34--83  [Label = "0.00"]
34--84  [Label = "0.00"]
34--85  [Label = "0.00"]
34--86  [Label = "0.00"]
34--87  [Label = "0.00"]
34--88  [Label = "0.00"]
34--89  [Label = "0.00"]
34--91  [Label = "0.00"]
34--92  [Label = "0.00"]
34--93  [Label = "0.00"]
34--94  [Label = "0.00"]
34--95  [Label = "0.00"]
34--96  [Label = "0.00"]
34--97  [Label = "0.00"]
34--98  [Label = "0.00"]
34--99  [Label = "0.00"]
35--35  [Label = "0.00"]
35--36  [Label = "0.00"]
35--37  [Label = "0.00"]
35--38  [Label = "0.00"]
35--39  [Label = "0.00"]
35--40  [Label = "0.00"]
35--41  [Label = "0.00"]
35--42  [Label = "0.00"]
35--44  [Label = "0.00"]
35--45  [Label = "0.00"]
35--46  [Label = "0.00"]
35--47  [Label = "0.00"]
35--48  [Label = "0.00"]
35--49  [Label = "0.00"]
35--51  [Label = "0.00"]
35--52  [Label = "0.00"]
35--53  [Label = "0.00"]
35--54  [Label = "0.00"]
35--55  [Label = "0.00"]
35--56  [Label = "0.00"]
35--57  [Label = "0.00"]
35--58  [Label = "0.00"]
35--59  [Label = "0.00"]
35--60  [Label = "0.00"]
35--61  [Label = "0.00"]
35--62  [Label = "0.00"]
35--63  [Label = "0.00"]
35--64  [Label = "0.00"]
35--65  [Label = "0.00"]
35--66  [Label = "0.00"]
35--67  [Label = "0.00"]
35--69  [Label = "0.00"]
35--70  [Label = "0.00"]
35--71  [Label = "0.00"]
35--73  [Label = "0.00"]
35--74  [Label = "0.00"]
35--75  [Label = "0.00"]
35--76  [Label = "0.00"]
35--77  [Label = "0.00"]
35--78  [Label = "0.00"]
35--79  [Label = "0.00"]
35--80  [Label = "0.00"]
35--81  [Label = "0.00"]
35--82  [Label = "0.00"]
35--83  [Label = "0.00"]
35--84  [Label = "0.00"]
35--85  [Label = "0.00"]
35--86  [Label = "0.00"]
35--87  [Label = "0.00"]
35--88  [Label = "0.00"]
35--89  [Label = "0.00"]
35--90  [Label = "0.00"]
35--91  [Label = "0.00"]
35--92  [Label = "0.00"]
35--93  [Label = "0.00"]
35--94  [Label = "0.00"]
35--95  [Label = "0.00"]
35--96  [Label = "0.00"]
35--97  [Label = "0.00"]
35--98  [Label = "0.00"]
35--99  [Label = "0.00"]
36--36  [Label = "0.00"]
36--37  [Label = "0.00"]
36--38  [Label = "0.00"]
36--39  [Label = "0.00"]
36--40  [Label = "0.00"]
36--41  [Label = "0.00"]
36--42  [Label = "0.00"]
36--44  [Label = "0.00"]
36--45  [Label = "0.00"]
36--46  [Label = "0.00"]
36--47  [Label = "0.00"]
36--48  [Label = "0.00"]
36--49  [Label = "0.00"]
36--50  [Label = "0.00"]
36--51  [Label = "0.00"]
36--52  [Label = "0.00"]
36--53  [Label = "0.00"]
36--54  [Label = "0.00"]
36--55  [Label = "0.00"]
36--56  [Label = "0.00"]
36--57  [Label = "0.00"]
36--58  [Label = "0.00"]
36--59  [Label = "0.00"]
36--60  [Label = "0.00"]
36--61  [Label = "0.00"]
36--62  [Label = "0.00"]
36--63  [Label = "0.00"]
36--64  [Label = "0.00"]
36--65  [Label = "0.00"]
36--66  [Label = "0.00"]
36--67  [Label = "0.00"]
36--68  [Label = "0.00"]
36--69  [Label = "0.00"]
36--70  [Label = "0.00"]
36--71  [Label = "0.00"]
36--72  [Label = "0.00"]
36--73  [Label = "0.00"]
36--74  [Label = "0.00"]
36--75  [Label = "0.00"]
36--76  [Label = "0.00"]
36--77  [Label = "0.00"]
36--78  [Label = "0.00"]
36--79  [Label = "0.00"]
36--80  [Label = "0.00"]
36--81  [Label = "0.00"]
36--82  [Label = "0.00"]
36--83  [Label = "0.00"]
36--84  [Label = "0.00"]
36--85  [Label = "0.00"]
36--86  [Label = "0.00"]
36--87  [Label = "0.00"]
36--88  [Label = "0.00"]
36--89  [Label = "0.00"]
36--90  [Label = "0.00"]
36--91  [Label = "0.00"]
36--92  [Label = "0.00"]
36--93  [Label = "0.00"]
36--94  [Label = "0.00"]
36--95  [Label = "0.00"]
36--96  [Label = "0.00"]
36--97  [Label = "0.00"]
36--98  [Label = "0.00"]
36--99  [Label = "0.00"]
37--37  [Label = "0.00"]
37--41  [Label = "0.00"]
37--42  [Label = "0.00"]
37--44  [Label = "0.00"]
37--45  [Label = "0.00"]
37--47  [Label = "0.00"]
37--48  [Label = "0.00"]
37--51  [Label = "0.00"]
37--53  [Label = "0.00"]
37--58  [Label = "0.00"]
37--60  [Label = "0.00"]
37--61  [Label = "0.00"]
37--66  [Label = "0.00"]
37--67  [Label = "0.00"]
37--70  [Label = "0.00"]
37--73  [Label = "0.00"]
37--74  [Label = "0.00"]
37--76  [Label = "0.00"]
37--77  [Label = "0.00"]
37--83  [Label = "0.00"]
37--86  [Label = "0.00"]
37--89  [Label = "0.00"]
37--90  [Label = "0.00"]
37--91  [Label = "0.00"]
37--94  [Label = "0.00"]
37--97  [Label = "0.00"]
37--98  [Label = "0.00"]
38--38  [Label = "0.00"]
38--42  [Label = "0.00"]
38--43  [Label = "0.00"]
38--44  [Label = "0.00"]
38--45  [Label = "0.00"]
38--46  [Label = "0.00"]
38--48  [Label = "0.00"]
38--50  [Label = "0.00"]
38--51  [Label = "0.00"]
38--52  [Label = "0.00"]
38--53  [Label = "0.00"]
38--54  [Label = "0.00"]
38--55  [Label = "0.00"]
38--56  [Label = "0.00"]
38--57  [Label = "0.00"]
38--59  [Label = "0.00"]
38--60  [Label = "0.00"]
38--61  [Label = "0.00"]
38--62  [Label = "0.00"]
38--63  [Label = "0.00"]
38--64  [Label = "0.00"]
38--65  [Label = "0.00"]
38--66  [Label = "0.00"]
38--67  [Label = "0.00"]
38--68  [Label = "0.00"]
38--71  [Label = "0.00"]
38--72  [Label = "0.00"]
38--74  [Label = "0.00"]
38--75  [Label = "0.00"]
38--77  [Label = "0.00"]
38--78  [Label = "0.00"]
38--79  [Label = "0.00"]
38--81  [Label = "0.00"]
38--82  [Label = "0.00"]
38--83  [Label = "0.00"]
38--85  [Label = "0.00"]
38--86  [Label = "0.00"]
38--87  [Label = "0.00"]
38--88  [Label = "0.00"]
38--92  [Label = "0.00"]
38--93  [Label = "0.00"]
38--94  [Label = "0.00"]
38--95  [Label = "0.00"]
38--96  [Label = "0.00"]
38--97  [Label = "0.00"]
38--99  [Label = "0.00"]
39--39  [Label = "0.00"]
39--40  [Label = "0.00"]
39--41  [Label = "0.00"]
39--44  [Label = "0.00"]
39--45  [Label = "0.00"]
39--47  [Label = "0.00"]
39--49  [Label = "0.00"]
39--51  [Label = "0.00"]
39--52  [Label = "0.00"]
39--55  [Label = "0.00"]
39--56  [Label = "0.00"]
39--57  [Label = "0.00"]
39--58  [Label = "0.00"]
39--63  [Label = "0.00"]
39--65  [Label = "0.00"]
39--69  [Label = "0.00"]
39--73  [Label = "0.00"]
39--77  [Label = "0.00"]
39--78  [Label = "0.00"]
39--80  [Label = "0.00"]
39--83  [Label = "0.00"]
39--84  [Label = "0.00"]
39--85  [Label = "0.00"]
39--86  [Label = "0.00"]
39--87  [Label = "0.00"]
39--88  [Label = "0.00"]
39--89  [Label = "0.00"]
39--90  [Label = "0.00"]
39--91  [Label = "0.00"]
39--93  [Label = "0.00"]
39--96  [Label = "0.00"]
39--97  [Label = "0.00"]
39--98  [Label = "0.00"]
39--99  [Label = "0.00"]
40--40  [Label = "0.00"]
40--41  [Label = "0.00"]
40--43  [Label = "0.00"]
40--44  [Label = "0.00"]
40--45  [Label = "0.00"]
40--46  [Label = "0.00"]
40--47  [Label = "0.00"]
40--49  [Label = "0.00"]
40--51  [Label = "0.00"]
40--52  [Label = "0.00"]
40--54  [Label = "0.00"]
40--55  [Label = "0.00"]
40--56  [Label = "0.00"]
40--57  [Label = "0.00"]
40--63  [Label = "0.00"]
40--64  [Label = "0.00"]
40--65  [Label = "0.00"]
40--68  [Label = "0.00"]
40--69  [Label = "0.00"]
40--77  [Label = "0.00"]
40--78  [Label = "0.00"]
40--79  [Label = "0.00"]
40--80  [Label = "0.00"]
40--81  [Label = "0.00"]
40--83  [Label = "0.00"]
40--84  [Label = "0.00"]
40--85  [Label = "0.00"]
40--86  [Label = "0.00"]
40--87  [Label = "0.00"]
40--88  [Label = "0.00"]
40--89  [Label = "0.00"]
40--91  [Label = "0.00"]
40--92  [Label = "0.00"]
40--93  [Label = "0.00"]
40--96  [Label = "0.00"]
40--97  [Label = "0.00"]
40--98  [Label = "0.00"]
40--99  [Label = "0.00"]
41--41  [Label = "0.00"]
41--44  [Label = "0.00"]
41--45  [Label = "0.00"]
41--46  [Label = "0.00"]
41--47  [Label = "0.00"]
41--48  [Label = "0.00"]
41--49  [Label = "0.00"]
41--51  [Label = "0.00"]
41--52  [Label = "0.00"]
41--53  [Label = "0.00"]
41--55  [Label = "0.00"]
41--56  [Label = "0.00"]
41--57  [Label = "0.00"]
41--58  [Label = "0.00"]
41--60  [Label = "0.00"]
41--61  [Label = "0.00"]
41--63  [Label = "0.00"]
41--65  [Label = "0.00"]
41--66  [Label = "0.00"]
41--67  [Label = "0.00"]
41--69  [Label = "0.00"]
41--70  [Label = "0.00"]
41--73  [Label = "0.00"]
41--74  [Label = "0.00"]
41--76  [Label = "0.00"]
41--77  [Label = "0.00"]
41--78  [Label = "0.00"]
41--80  [Label = "0.00"]
41--81  [Label = "0.00"]
41--83  [Label = "0.00"]
41--84  [Label = "0.00"]
41--85  [Label = "0.00"]
41--86  [Label = "0.00"]
41--87  [Label = "0.00"]
41--88  [Label = "0.00"]
41--89  [Label = "0.00"]
41--90  [Label = "0.00"]
41--91  [Label = "0.00"]
41--92  [Label = "0.00"]
41--93  [Label = "0.00"]
41--94  [Label = "0.00"]
41--96  [Label = "0.00"]
41--97  [Label = "0.00"]
41--98  [Label = "0.00"]
41--99  [Label = "0.00"]
42--42  [Label = "0.00"]
42--44  [Label = "0.00"]
42--45  [Label = "0.00"]
42--46  [Label = "0.00"]
42--48  [Label = "0.00"]
42--50  [Label = "0.00"]
42--51  [Label = "0.00"]
42--53  [Label = "0.00"]
42--55  [Label = "0.00"]
42--56  [Label = "0.00"]
42--58  [Label = "0.00"]
42--59  [Label = "0.00"]
42--60  [Label = "0.00"]
42--61  [Label = "0.00"]
42--62  [Label = "0.00"]
42--63  [Label = "0.00"]
42--64  [Label = "0.00"]
42--65  [Label = "0.00"]
42--66  [Label = "0.00"]
42--67  [Label = "0.00"]
42--70  [Label = "0.00"]
42--71  [Label = "0.00"]
42--72  [Label = "0.00"]
42--73  [Label = "0.00"]
42--74  [Label = "0.00"]
42--75  [Label = "0.00"]
42--76  [Label = "0.00"]
42--77  [Label = "0.00"]
42--78  [Label = "0.00"]
42--79  [Label = "0.00"]
42--81  [Label = "0.00"]
42--82  [Label = "0.00"]
42--83  [Label = "0.00"]
42--85  [Label = "0.00"]
42--86  [Label = "0.00"]
42--87  [Label = "0.00"]
42--88  [Label = "0.00"]
42--90  [Label = "0.00"]
42--91  [Label = "0.00"]
42--92  [Label = "0.00"]
42--94  [Label = "0.00"]
42--95  [Label = "0.00"]
42--97  [Label = "0.00"]
42--98  [Label = "0.00"]
42--99  [Label = "0.00"]
43--43  [Label = "0.00"]
43--44  [Label = "0.00"]
43--46  [Label = "0.00"]
43--49  [Label = "0.00"]
43--51  [Label = "0.00"]
43--52  [Label = "0.00"]
43--54  [Label = "0.00"]
43--55  [Label = "0.00"]
43--56  [Label = "0.00"]
43--57  [Label = "0.00"]
43--62  [Label = "0.00"]
43--63  [Label = "0.00"]
43--64  [Label = "0.00"]
43--65  [Label = "0.00"]
43--68  [Label = "0.00"]
43--77  [Label = "0.00"]
43--78  [Label = "0.00"]
43--79  [Label = "0.00"]
43--80  [Label = "0.00"]
43--81  [Label = "0.00"]
43--84  [Label = "0.00"]
43--85  [Label = "0.00"]
43--86  [Label = "0.00"]
43--87  [Label = "0.00"]
43--88  [Label = "0.00"]
43--92  [Label = "0.00"]
43--93  [Label = "0.00"]
43--94  [Label = "0.00"]
43--96  [Label = "0.00"]
43--97  [Label = "0.00"]
43--99  [Label = "0.00"]
44--44  [Label = "0.00"]
44--45  [Label = "0.00"]
44--46  [Label = "0.00"]
44--47  [Label = "0.00"]
44--48  [Label = "0.00"]
44--49  [Label = "0.00"]
44--50  [Label = "0.00"]
44--51  [Label = "0.00"]
44--52  [Label = "0.00"]
44--53  [Label = "0.00"]
44--54  [Label = "0.00"]
44--55  [Label = "0.00"]
44--56  [Label = "0.00"]
44--57  [Label = "0.00"]
44--58  [Label = "0.00"]
44--59  [Label = "0.00"]
44--60  [Label = "0.00"]
44--61  [Label = "0.00"]
44--62  [Label = "0.00"]
44--63  [Label = "0.00"]
44--64  [Label = "0.00"]
44--65  [Label = "0.00"]
44--66  [Label = "0.00"]
44--67  [Label = "0.00"]
44--68  [Label = "0.00"]
44--69  [Label = "0.00"]
44--70  [Label = "0.00"]
44--71  [Label = "0.00"]
44--72  [Label = "0.00"]
44--73  [Label = "0.00"]
44--74  [Label = "0.00"]
44--75  [Label = "0.00"]
44--76  [Label = "0.00"]
44--77  [Label = "0.00"]
44--78  [Label = "0.00"]
44--79  [Label = "0.00"]
44--80  [Label = "0.00"]
44--81  [Label = "0.00"]
44--82  [Label = "0.00"]
44--83  [Label = "0.00"]
44--84  [Label = "0.00"]
44--85  [Label = "0.00"]
44--86  [Label = "0.00"]
44--87  [Label = "0.00"]
44--88  [Label = "0.00"]
44--89  [Label = "0.00"]
44--90  [Label = "0.00"]
44--91  [Label = "0.00"]
44--92  [Label = "0.00"]
44--93  [Label = "0.00"]
44--94  [Label = "0.00"]
44--95  [Label = "0.00"]
44--96  [Label = "0.00"]
44--97  [Label = "0.00"]
44--98  [Label = "0.00"]
44--99  [Label = "0.00"]
45--45  [Label = "0.00"]
45--46  [Label = "0.00"]
45--47  [Label = "0.00"]
45--48  [Label = "0.00"]
45--49  [Label = "0.00"]
45--50  [Label = "0.00"]
45--51  [Label = "0.00"]
45--52  [Label = "0.00"]
45--53  [Label = "0.00"]
45--54  [Label = "0.00"]
45--55  [Label = "0.00"]
45--56  [Label = "0.00"]
45--57  [Label = "0.00"]
45--58  [Label = "0.00"]
45--59  [Label = "0.00"]
45--60  [Label = "0.00"]
45--61  [Label = "0.00"]
45--62  [Label = "0.00"]
45--63  [Label = "0.00"]
45--64  [Label = "0.00"]
45--65  [Label = "0.00"]
45--66  [Label = "0.00"]
45--67  [Label = "0.00"]
45--69  [Label = "0.00"]
45--70  [Label = "0.00"]
45--71  [Label = "0.00"]
45--72  [Label = "0.00"]
45--73  [Label = "0.00"]
45--74  [Label = "0.00"]
45--75  [Label = "0.00"]
45--76  [Label = "0.00"]
45--77  [Label = "0.00"]
45--78  [Label = "0.00"]
45--79  [Label = "0.00"]
45--80  [Label = "0.00"]
45--81  [Label = "0.00"]
45--82  [Label = "0.00"]
45--83  [Label = "0.00"]
45--85  [Label = "0.00"]
45--86  [Label = "0.00"]
45--87  [Label = "0.00"]
45--88  [Label = "0.00"]
45--89  [Label = "0.00"]
45--90  [Label = "0.00"]
45--91  [Label = "0.00"]
45--92  [Label = "0.00"]
45--93  [Label = "0.00"]
45--94  [Label = "0.00"]
45--95  [Label = "0.00"]
45--96  [Label = "0.00"]
45--97  [Label = "0.00"]
45--98  [Label = "0.00"]
45--99  [Label = "0.00"]
46--46  [Label = "0.00"]
46--47  [Label = "0.00"]
46--48  [Label = "0.00"]
46--49  [Label = "0.00"]
46--50  [Label = "0.00"]
46--51  [Label = "0.00"]
46--52  [Label = "0.00"]
46--53  [Label = "0.00"]
46--54  [Label = "0.00"]
46--55  [Label = "0.00"]
46--56  [Label = "0.00"]
46--57  [Label = "0.00"]
46--59  [Label = "0.00"]
46--60  [Label = "0.00"]
46--61  [Label = "0.00"]
46--62  [Label = "0.00"]
46--63  [Label = "0.00"]
46--64  [Label = "0.00"]
46--65  [Label = "0.00"]
46--66  [Label = "0.00"]
46--67  [Label = "0.00"]
46--68  [Label = "0.00"]
46--71  [Label = "0.00"]
46--72  [Label = "0.00"]
46--73  [Label = "0.00"]
46--74  [Label = "0.00"]
46--75  [Label = "0.00"]
46--77  [Label = "0.00"]
46--78  [Label = "0.00"]
46--79  [Label = "0.00"]
46--80  [Label = "0.00"]
46--81  [Label = "0.00"]
46--82  [Label = "0.00"]
46--83  [Label = "0.00"]
46--85  [Label = "0.00"]
46--86  [Label = "0.00"]
46--87  [Label = "0.00"]
46--88  [Label = "0.00"]
46--90  [Label = "0.00"]
46--91  [Label = "0.00"]
46--92  [Label = "0.00"]
46--93  [Label = "0.00"]
46--94  [Label = "0.00"]
46--95  [Label = "0.00"]
46--96  [Label = "0.00"]
46--97  [Label = "0.00"]
46--98  [Label = "0.00"]
46--99  [Label = "0.00"]
47--47  [Label = "0.00"]
47--48  [Label = "0.00"]
47--49  [Label = "0.00"]
47--51  [Label = "0.00"]
47--52  [Label = "0.00"]
47--53  [Label = "0.00"]
47--55  [Label = "0.00"]
47--56  [Label = "0.00"]
47--57  [Label = "0.00"]
47--58  [Label = "0.00"]
47--60  [Label = "0.00"]
47--61  [Label = "0.00"]
47--65  [Label = "0.00"]
47--66  [Label = "0.00"]
47--67  [Label = "0.00"]
47--69  [Label = "0.00"]
47--70  [Label = "0.00"]
47--73  [Label = "0.00"]
47--74  [Label = "0.00"]
47--76  [Label = "0.00"]
47--77  [Label = "0.00"]
47--78  [Label = "0.00"]
47--80  [Label = "0.00"]
47--81  [Label = "0.00"]
47--83  [Label = "0.00"]
47--84  [Label = "0.00"]
47--85  [Label = "0.00"]
47--86  [Label = "0.00"]
47--87  [Label = "0.00"]
47--88  [Label = "0.00"]
47--89  [Label = "0.00"]
47--90  [Label = "0.00"]
47--91  [Label = "0.00"]
47--92  [Label = "0.00"]
47--93  [Label = "0.00"]
47--94  [Label = "0.00"]
47--96  [Label = "0.00"]
47--97  [Label = "0.00"]
47--98  [Label = "0.00"]
47--99  [Label = "0.00"]
48--48  [Label = "0.00"]
48--50  [Label = "0.00"]
48--51  [Label = "0.00"]
48--53  [Label = "0.00"]
48--55  [Label = "0.00"]
48--56  [Label = "0.00"]
48--58  [Label = "0.00"]
48--59  [Label = "0.00"]
48--60  [Label = "0.00"]
48--61  [Label = "0.00"]
48--62  [Label = "0.00"]
48--65  [Label = "0.00"]
48--66  [Label = "0.00"]
48--67  [Label = "0.00"]
48--70  [Label = "0.00"]
48--71  [Label = "0.00"]
48--72  [Label = "0.00"]
48--73  [Label = "0.00"]
48--74  [Label = "0.00"]
48--75  [Label = "0.00"]
48--76  [Label = "0.00"]
48--77  [Label = "0.00"]
48--80  [Label = "0.00"]
48--81  [Label = "0.00"]
48--82  [Label = "0.00"]
48--83  [Label = "0.00"]
48--85  [Label = "0.00"]
48--86  [Label = "0.00"]
48--87  [Label = "0.00"]
48--88  [Label = "0.00"]
48--89  [Label = "0.00"]
48--90  [Label = "0.00"]
48--91  [Label = "0.00"]
48--92  [Label = "0.00"]
48--94  [Label = "0.00"]
48--95  [Label = "0.00"]
48--97  [Label = "0.00"]
48--98  [Label = "0.00"]
49--49  [Label = "0.00"]
49--51  [Label = "0.00"]
49--52  [Label = "0.00"]
49--54  [Label = "0.00"]
49--55  [Label = "0.00"]
49--56  [Label = "0.00"]
49--57  [Label = "0.00"]
49--58  [Label = "0.00"]
49--60  [Label = "0.00"]
49--63  [Label = "0.00"]
49--64  [Label = "0.00"]
49--65  [Label = "0.00"]
49--67  [Label = "0.00"]
49--68  [Label = "0.00"]
49--69  [Label = "0.00"]
49--73  [Label = "0.00"]
49--77  [Label = "0.00"]
49--78  [Label = "0.00"]
49--79  [Label = "0.00"]
49--80  [Label = "0.00"]
49--81  [Label = "0.00"]
49--83  [Label = "0.00"]
49--84  [Label = "0.00"]
49--85  [Label = "0.00"]
49--86  [Label = "0.00"]
49--87  [Label = "0.00"]
49--88  [Label = "0.00"]
49--89  [Label = "0.00"]
49--91  [Label = "0.00"]
49--92  [Label = "0.00"]
49--93  [Label = "0.00"]
49--94  [Label = "0.00"]
49--96  [Label = "0.00"]
49--97  [Label = "0.00"]
49--98  [Label = "0.00"]
49--99  [Label = "0.00"]
50--50  [Label = "0.00"]
50--53  [Label = "0.00"]
50--54  [Label = "0.00"]
50--55  [Label = "0.00"]
50--59  [Label = "0.00"]
50--60  [Label = "0.00"]
50--61  [Label = "0.00"]
50--62  [Label = "0.00"]
50--63  [Label = "0.00"]
50--64  [Label = "0.00"]
50--65  [Label = "0.00"]
50--66  [Label = "0.00"]
50--67  [Label = "0.00"]
50--71  [Label = "0.00"]
50--72  [Label = "0.00"]
50--74  [Label = "0.00"]
50--75  [Label = "0.00"]
50--78  [Label = "0.00"]
50--79  [Label = "0.00"]
50--81  [Label = "0.00"]
50--82  [Label = "0.00"]
50--85  [Label = "0.00"]
50--87  [Label = "0.00"]
50--88  [Label = "0.00"]
50--92  [Label = "0.00"]
50--93  [Label = "0.00"]
50--94  [Label = "0.00"]
50--95  [Label = "0.00"]
50--96  [Label = "0.00"]
50--97  [Label = "0.00"]
50--99  [Label = "0.00"]
51--51  [Label = "0.00"]
51--52  [Label = "0.00"]
51--53  [Label = "0.00"]
51--54  [Label = "0.00"]
51--55  [Label = "0.00"]
51--56  [Label = "0.00"]
51--57  [Label = "0.00"]
51--58  [Label = "0.00"]
51--59  [Label = "0.00"]
51--60  [Label = "0.00"]
51--61  [Label = "0.00"]
51--62  [Label = "0.00"]
51--63  [Label = "0.00"]
51--64  [Label = "0.00"]
51--65  [Label = "0.00"]
51--66  [Label = "0.00"]
51--67  [Label = "0.00"]
51--68  [Label = "0.00"]
51--69  [Label = "0.00"]
51--70  [Label = "0.00"]
51--71  [Label = "0.00"]
51--73  [Label = "0.00"]
51--74  [Label = "0.00"]
51--75  [Label = "0.00"]
51--76  [Label = "0.00"]
51--77  [Label = "0.00"]
51--78  [Label = "0.00"]
51--79  [Label = "0.00"]
51--80  [Label = "0.00"]
51--81  [Label = "0.00"]
51--82  [Label = "0.00"]
51--83  [Label = "0.00"]
51--84  [Label = "0.00"]
51--85  [Label = "0.00"]
51--86  [Label = "0.00"]
51--87  [Label = "0.00"]
51--88  [Label = "0.00"]
51--89  [Label = "0.00"]
51--90  [Label = "0.00"]
51--91  [Label = "0.00"]
51--92  [Label = "0.00"]
51--93  [Label = "0.00"]
51--94  [Label = "0.00"]
51--96  [Label = "0.00"]
51--97  [Label = "0.00"]
51--98  [Label = "0.00"]
51--99  [Label = "0.00"]
52--52  [Label = "0.00"]
52--54  [Label = "0.00"]
52--55  [Label = "0.00"]
52--56  [Label = "0.00"]
52--57  [Label = "0.00"]
52--58  [Label = "0.00"]
52--60  [Label = "0.00"]
52--63  [Label = "0.00"]
52--64  [Label = "0.00"]
52--65  [Label = "0.00"]
52--67  [Label = "0.00"]
52--68  [Label = "0.00"]
52--69  [Label = "0.00"]
52--73  [Label = "0.00"]
52--77  [Label = "0.00"]
52--78  [Label = "0.00"]
52--79  [Label = "0.00"]
52--80  [Label = "0.00"]
52--81  [Label = "0.00"]
52--83  [Label = "0.00"]
52--84  [Label = "0.00"]
52--85  [Label = "0.00"]
52--86  [Label = "0.00"]
52--87  [Label = "0.00"]
52--88  [Label = "0.00"]
52--89  [Label = "0.00"]
52--91  [Label = "0.00"]
52--92  [Label = "0.00"]
52--93  [Label = "0.00"]
52--94  [Label = "0.00"]
52--96  [Label = "0.00"]
52--97  [Label = "0.00"]
52--98  [Label = "0.00"]
52--99  [Label = "0.00"]
53--53  [Label = "0.00"]
53--55  [Label = "0.00"]
53--56  [Label = "0.00"]
53--57  [Label = "0.00"]
53--58  [Label = "0.00"]
53--59  [Label = "0.00"]
53--60  [Label = "0.00"]
53--61  [Label = "0.00"]
53--62  [Label = "0.00"]
53--65  [Label = "0.00"]
53--66  [Label = "0.00"]
53--67  [Label = "0.00"]
53--70  [Label = "0.00"]
53--71  [Label = "0.00"]
53--72  [Label = "0.00"]
53--73  [Label = "0.00"]
53--74  [Label = "0.00"]
53--75  [Label = "0.00"]
53--76  [Label = "0.00"]
53--77  [Label = "0.00"]
53--80  [Label = "0.00"]
53--81  [Label = "0.00"]
53--82  [Label = "0.00"]
53--83  [Label = "0.00"]
53--85  [Label = "0.00"]
53--86  [Label = "0.00"]
53--87  [Label = "0.00"]
53--88  [Label = "0.00"]
53--89  [Label = "0.00"]
53--90  [Label = "0.00"]
53--91  [Label = "0.00"]
53--92  [Label = "0.00"]
53--94  [Label = "0.00"]
53--95  [Label = "0.00"]
53--97  [Label = "0.00"]
53--98  [Label = "0.00"]
54--54  [Label = "0.00"]
54--55  [Label = "0.00"]
54--56  [Label = "0.00"]
54--57  [Label = "0.00"]
54--59  [Label = "0.00"]
54--60  [Label = "0.00"]
54--62  [Label = "0.00"]
54--63  [Label = "0.00"]
54--64  [Label = "0.00"]
54--65  [Label = "0.00"]
54--66  [Label = "0.00"]
54--67  [Label = "0.00"]
54--68  [Label = "0.00"]
54--71  [Label = "0.00"]
54--72  [Label = "0.00"]
54--75  [Label = "0.00"]
54--77  [Label = "0.00"]
54--78  [Label = "0.00"]
54--79  [Label = "0.00"]
54--80  [Label = "0.00"]
54--81  [Label = "0.00"]
54--82  [Label = "0.00"]
54--83  [Label = "0.00"]
54--85  [Label = "0.00"]
54--86  [Label = "0.00"]
54--87  [Label = "0.00"]
54--88  [Label = "0.00"]
54--92  [Label = "0.00"]
54--93  [Label = "0.00"]
54--94  [Label = "0.00"]
54--95  [Label = "0.00"]
54--96  [Label = "0.00"]
54--97  [Label = "0.00"]
54--99  [Label = "0.00"]
55--55  [Label = "0.00"]
55--56  [Label = "0.00"]
55--57  [Label = "0.00"]
55--58  [Label = "0.00"]
55--59  [Label = "0.00"]
55--60  [Label = "0.00"]
55--61  [Label = "0.00"]
55--62  [Label = "0.00"]
55--63  [Label = "0.00"]
55--64  [Label = "0.00"]
55--65  [Label = "0.00"]
55--66  [Label = "0.00"]
55--67  [Label = "0.00"]
55--68  [Label = "0.00"]
55--69  [Label = "0.00"]
55--71  [Label = "0.00"]
55--72  [Label = "0.00"]
55--73  [Label = "0.00"]
55--74  [Label = "0.00"]
55--75  [Label = "0.00"]
55--77  [Label = "0.00"]
55--78  [Label = "0.00"]
55--79  [Label = "0.00"]
55--80  [Label = "0.00"]
55--81  [Label = "0.00"]
55--82  [Label = "0.00"]
55--83  [Label = "0.00"]
55--84  [Label = "0.00"]
55--85  [Label = "0.00"]
55--86  [Label = "0.00"]
55--87  [Label = "0.00"]
55--88  [Label = "0.00"]
55--89  [Label = "0.00"]
55--90  [Label = "0.00"]
55--91  [Label = "0.00"]
55--92  [Label = "0.00"]
55--93  [Label = "0.00"]
55--94  [Label = "0.00"]
55--95  [Label = "0.00"]
55--96  [Label = "0.00"]
55--97  [Label = "0.00"]
55--98  [Label = "0.00"]
55--99  [Label = "0.00"]
56--56  [Label = "0.00"]
56--57  [Label = "0.00"]
56--58  [Label = "0.00"]
56--60  [Label = "0.00"]
56--61  [Label = "0.00"]
56--62  [Label = "0.00"]
56--63  [Label = "0.00"]
56--64  [Label = "0.00"]
56--65  [Label = "0.00"]
56--66  [Label = "0.00"]
56--67  [Label = "0.00"]
56--68  [Label = "0.00"]
56--69  [Label = "0.00"]
56--73  [Label = "0.00"]
56--74  [Label = "0.00"]
56--77  [Label = "0.00"]
56--78  [Label = "0.00"]
56--79  [Label = "0.00"]
56--80  [Label = "0.00"]
56--81  [Label = "0.00"]
56--83  [Label = "0.00"]
56--84  [Label = "0.00"]
56--85  [Label = "0.00"]
56--86  [Label = "0.00"]
56--87  [Label = "0.00"]
56--88  [Label = "0.00"]
56--89  [Label = "0.00"]
56--90  [Label = "0.00"]
56--91  [Label = "0.00"]
56--92  [Label = "0.00"]
56--93  [Label = "0.00"]
56--94  [Label = "0.00"]
56--96  [Label = "0.00"]
56--97  [Label = "0.00"]
56--98  [Label = "0.00"]
56--99  [Label = "0.00"]
57--57  [Label = "0.00"]
57--58  [Label = "0.00"]
57--60  [Label = "0.00"]
57--61  [Label = "0.00"]
57--62  [Label = "0.00"]
57--63  [Label = "0.00"]
57--64  [Label = "0.00"]
57--65  [Label = "0.00"]
57--66  [Label = "0.00"]
57--67  [Label = "0.00"]
57--68  [Label = "0.00"]
57--69  [Label = "0.00"]
57--73  [Label = "0.00"]
57--74  [Label = "0.00"]
57--77  [Label = "0.00"]
57--78  [Label = "0.00"]
57--79  [Label = "0.00"]
57--80  [Label = "0.00"]
57--81  [Label = "0.00"]
57--83  [Label = "0.00"]
57--84  [Label = "0.00"]
57--85  [Label = "0.00"]
57--86  [Label = "0.00"]
57--87  [Label = "0.00"]
57--88  [Label = "0.00"]
57--89  [Label = "0.00"]
57--91  [Label = "0.00"]
57--92  [Label = "0.00"]
57--93  [Label = "0.00"]
57--94  [Label = "0.00"]
57--96  [Label = "0.00"]
57--97  [Label = "0.00"]
57--98  [Label = "0.00"]
57--99  [Label = "0.00"]
58--58  [Label = "0.00"]
58--60  [Label = "0.00"]
58--61  [Label = "0.00"]
58--66  [Label = "0.00"]
58--67  [Label = "0.00"]
58--69  [Label = "0.00"]
58--70  [Label = "0.00"]
58--73  [Label = "0.00"]
58--74  [Label = "0.00"]
58--76  [Label = "0.00"]
58--77  [Label = "0.00"]
58--80  [Label = "0.00"]
58--83  [Label = "0.00"]
58--84  [Label = "0.00"]
58--85  [Label = "0.00"]
58--86  [Label = "0.00"]
58--87  [Label = "0.00"]
58--88  [Label = "0.00"]
58--89  [Label = "0.00"]
58--90  [Label = "0.00"]
58--91  [Label = "0.00"]
58--94  [Label = "0.00"]
58--97  [Label = "0.00"]
58--98  [Label = "0.00"]
59--59  [Label = "0.00"]
59--60  [Label = "0.00"]
59--61  [Label = "0.00"]
59--62  [Label = "0.00"]
59--63  [Label = "0.00"]
59--64  [Label = "0.00"]
59--65  [Label = "0.00"]
59--66  [Label = "0.00"]
59--67  [Label = "0.00"]
59--70  [Label = "0.00"]
59--71  [Label = "0.00"]
59--72  [Label = "0.00"]
59--73  [Label = "0.00"]
59--74  [Label = "0.00"]
59--75  [Label = "0.00"]
59--77  [Label = "0.00"]
59--78  [Label = "0.00"]
59--79  [Label = "0.00"]
59--81  [Label = "0.00"]
59--82  [Label = "0.00"]
59--83  [Label = "0.00"]
59--85  [Label = "0.00"]
59--87  [Label = "0.00"]
59--88  [Label = "0.00"]
59--92  [Label = "0.00"]
59--93  [Label = "0.00"]
59--94  [Label = "0.00"]
59--95  [Label = "0.00"]
59--96  [Label = "0.00"]
59--97  [Label = "0.00"]
59--99  [Label = "0.00"]
60--60  [Label = "0.00"]
60--61  [Label = "0.00"]
60--62  [Label = "0.00"]
60--63  [Label = "0.00"]
60--64  [Label = "0.00"]
60--65  [Label = "0.00"]
60--66  [Label = "0.00"]
60--67  [Label = "0.00"]
60--70  [Label = "0.00"]
60--71  [Label = "0.00"]
60--72  [Label = "0.00"]
60--73  [Label = "0.00"]
60--74  [Label = "0.00"]
60--75  [Label = "0.00"]
60--76  [Label = "0.00"]
60--77  [Label = "0.00"]
60--78  [Label = "0.00"]
60--79  [Label = "0.00"]
60--80  [Label = "0.00"]
60--81  [Label = "0.00"]
60--82  [Label = "0.00"]
60--83  [Label = "0.00"]
60--85  [Label = "0.00"]
60--86  [Label = "0.00"]
60--87  [Label = "0.00"]
60--88  [Label = "0.00"]
60--89  [Label = "0.00"]
60--90  [Label = "0.00"]
60--91  [Label = "0.00"]
60--92  [Label = "0.00"]
60--93  [Label = "0.00"]
60--94  [Label = "0.00"]
60--95  [Label = "0.00"]
60--96  [Label = "0.00"]
60--97  [Label = "0.00"]
60--98  [Label = "0.00"]
60--99  [Label = "0.00"]
61--61  [Label = "0.00"]
61--62  [Label = "0.00"]
61--65  [Label = "0.00"]
61--66  [Label = "0.00"]
61--67  [Label = "0.00"]
61--70  [Label = "0.00"]
61--71  [Label = "0.00"]
61--72  [Label = "0.00"]
61--73  [Label = "0.00"]
61--74  [Label = "0.00"]
61--75  [Label = "0.00"]
61--76  [Label = "0.00"]
61--77  [Label = "0.00"]
61--80  [Label = "0.00"]
61--81  [Label = "0.00"]
61--82  [Label = "0.00"]
61--83  [Label = "0.00"]
61--85  [Label = "0.00"]
61--86  [Label = "0.00"]
61--87  [Label = "0.00"]
61--88  [Label = "0.00"]
61--89  [Label = "0.00"]
61--90  [Label = "0.00"]
61--91  [Label = "0.00"]
61--92  [Label = "0.00"]
61--94  [Label = "0.00"]
61--95  [Label = "0.00"]
61--97  [Label = "0.00"]
61--98  [Label = "0.00"]
62--62  [Label = "0.00"]
62--63  [Label = "0.00"]
62--64  [Label = "0.00"]
62--65  [Label = "0.00"]
62--66  [Label = "0.00"]
62--67  [Label = "0.00"]
62--71  [Label = "0.00"]
62--72  [Label = "0.00"]
62--73  [Label = "0.00"]
62--74  [Label = "0.00"]
62--75  [Label = "0.00"]
62--77  [Label = "0.00"]
62--78  [Label = "0.00"]
62--79  [Label = "0.00"]
62--81  [Label = "0.00"]
62--82  [Label = "0.00"]
62--83  [Label = "0.00"]
62--85  [Label = "0.00"]
62--87  [Label = "0.00"]
62--88  [Label = "0.00"]
62--92  [Label = "0.00"]
62--93  [Label = "0.00"]
62--94  [Label = "0.00"]
62--95  [Label = "0.00"]
62--96  [Label = "0.00"]
62--97  [Label = "0.00"]
62--99  [Label = "0.00"]
63--63  [Label = "0.00"]
63--64  [Label = "0.00"]
63--65  [Label = "0.00"]
63--66  [Label = "0.00"]
63--67  [Label = "0.00"]
63--68  [Label = "0.00"]
63--71  [Label = "0.00"]
63--72  [Label = "0.00"]
63--75  [Label = "0.00"]
63--77  [Label = "0.00"]
63--78  [Label = "0.00"]
63--79  [Label = "0.00"]
63--80  [Label = "0.00"]
63--81  [Label = "0.00"]
63--82  [Label = "0.00"]
63--83  [Label = "0.00"]
63--84  [Label = "0.00"]
63--85  [Label = "0.00"]
63--86  [Label = "0.00"]
63--87  [Label = "0.00"]
63--88  [Label = "0.00"]
63--92  [Label = "0.00"]
63--93  [Label = "0.00"]
63--94  [Label = "0.00"]
63--95  [Label = "0.00"]
63--96  [Label = "0.00"]
63--97  [Label = "0.00"]
63--99  [Label = "0.00"]
64--64  [Label = "0.00"]
64--65  [Label = "0.00"]
64--66  [Label = "0.00"]
64--67  [Label = "0.00"]
64--68  [Label = "0.00"]
64--71  [Label = "0.00"]
64--72  [Label = "0.00"]
64--75  [Label = "0.00"]
64--77  [Label = "0.00"]
64--78  [Label = "0.00"]
64--79  [Label = "0.00"]
64--81  [Label = "0.00"]
64--82  [Label = "0.00"]
64--85  [Label = "0.00"]
64--86  [Label = "0.00"]
64--87  [Label = "0.00"]
64--88  [Label = "0.00"]
64--92  [Label = "0.00"]
64--93  [Label = "0.00"]
64--94  [Label = "0.00"]
64--95  [Label = "0.00"]
64--96  [Label = "0.00"]
64--97  [Label = "0.00"]
64--99  [Label = "0.00"]
65--65  [Label = "0.00"]
65--66  [Label = "0.00"]
65--67  [Label = "0.00"]
65--68  [Label = "0.00"]
65--71  [Label = "0.00"]
65--72  [Label = "0.00"]
65--73  [Label = "0.00"]
65--74  [Label = "0.00"]
65--75  [Label = "0.00"]
65--77  [Label = "0.00"]
65--78  [Label = "0.00"]
65--79  [Label = "0.00"]
65--80  [Label = "0.00"]
65--81  [Label = "0.00"]
65--82  [Label = "0.00"]
65--83  [Label = "0.00"]
65--84  [Label = "0.00"]
65--85  [Label = "0.00"]
65--86  [Label = "0.00"]
65--87  [Label = "0.00"]
65--88  [Label = "0.00"]
65--91  [Label = "0.00"]
65--92  [Label = "0.00"]
65--93  [Label = "0.00"]
65--94  [Label = "0.00"]
65--95  [Label = "0.00"]
65--96  [Label = "0.00"]
65--97  [Label = "0.00"]
65--98  [Label = "0.00"]
65--99  [Label = "0.00"]
66--66  [Label = "0.00"]
66--67  [Label = "0.00"]
66--70  [Label = "0.00"]
66--71  [Label = "0.00"]
66--72  [Label = "0.00"]
66--73  [Label = "0.00"]
66--74  [Label = "0.00"]
66--75  [Label = "0.00"]
66--76  [Label = "0.00"]
66--77  [Label = "0.00"]
66--78  [Label = "0.00"]
66--79  [Label = "0.00"]
66--80  [Label = "0.00"]
66--81  [Label = "0.00"]
66--82  [Label = "0.00"]
66--83  [Label = "0.00"]
66--85  [Label = "0.00"]
66--86  [Label = "0.00"]
66--87  [Label = "0.00"]
66--88  [Label = "0.00"]
66--89  [Label = "0.00"]
66--90  [Label = "0.00"]
66--91  [Label = "0.00"]
66--92  [Label = "0.00"]
66--94  [Label = "0.00"]
66--95  [Label = "0.00"]
66--96  [Label = "0.00"]
66--97  [Label = "0.00"]
66--98  [Label = "0.00"]
66--99  [Label = "0.00"]
67--67  [Label = "0.00"]
67--70  [Label = "0.00"]
67--71  [Label = "0.00"]
67--72  [Label = "0.00"]
67--73  [Label = "0.00"]
67--74  [Label = "0.00"]
67--75  [Label = "0.00"]
67--76  [Label = "0.00"]
67--77  [Label = "0.00"]
67--78  [Label = "0.00"]
67--79  [Label = "0.00"]
67--80  [Label = "0.00"]
67--81  [Label = "0.00"]
67--82  [Label = "0.00"]
67--83  [Label = "0.00"]
67--85  [Label = "0.00"]
67--86  [Label = "0.00"]
67--87  [Label = "0.00"]
67--88  [Label = "0.00"]
67--89  [Label = "0.00"]
67--90  [Label = "0.00"]
67--91  [Label = "0.00"]
67--92  [Label = "0.00"]
67--93  [Label = "0.00"]
67--94  [Label = "0.00"]
67--95  [Label = "0.00"]
67--96  [Label = "0.00"]
67--97  [Label = "0.00"]
67--98  [Label = "0.00"]
67--99  [Label = "0.00"]
68--68  [Label = "0.00"]
68--77  [Label = "0.00"]
68--78  [Label = "0.00"]
68--79  [Label = "0.00"]
68--80  [Label = "0.00"]
68--81  [Label = "0.00"]
68--84  [Label = "0.00"]
68--85  [Label = "0.00"]
68--86  [Label = "0.00"]
68--87  [Label = "0.00"]
68--88  [Label = "0.00"]
68--92  [Label = "0.00"]
68--93  [Label = "0.00"]
68--94  [Label = "0.00"]
68--96  [Label = "0.00"]
68--97  [Label = "0.00"]
68--99  [Label = "0.00"]
69--69  [Label = "0.00"]
69--73  [Label = "0.00"]
69--77  [Label = "0.00"]
69--78  [Label = "0.00"]
69--80  [Label = "0.00"]
69--83  [Label = "0.00"]
69--84  [Label = "0.00"]
69--85  [Label = "0.00"]
69--86  [Label = "0.00"]
69--87  [Label = "0.00"]
69--88  [Label = "0.00"]
69--89  [Label = "0.00"]
69--91  [Label = "0.00"]
69--93  [Label = "0.00"]
69--96  [Label = "0.00"]
69--97  [Label = "0.00"]
69--98  [Label = "0.00"]
69--99  [Label = "0.00"]
70--70  [Label = "0.00"]
70--71  [Label = "0.00"]
70--73  [Label = "0.00"]
70--74  [Label = "0.00"]
70--75  [Label = "0.00"]
70--76  [Label = "0.00"]
70--77  [Label = "0.00"]
70--82  [Label = "0.00"]
70--83  [Label = "0.00"]
70--85  [Label = "0.00"]
70--86  [Label = "0.00"]
70--88  [Label = "0.00"]
70--89  [Label = "0.00"]
70--90  [Label = "0.00"]
70--91  [Label = "0.00"]
70--94  [Label = "0.00"]
70--97  [Label = "0.00"]
70--98  [Label = "0.00"]
71--71  [Label = "0.00"]
71--72  [Label = "0.00"]
71--73  [Label = "0.00"]
71--74  [Label = "0.00"]
71--75  [Label = "0.00"]
71--76  [Label = "0.00"]
71--79  [Label = "0.00"]
71--81  [Label = "0.00"]
71--82  [Label = "0.00"]
71--83  [Label = "0.00"]
71--85  [Label = "0.00"]
71--87  [Label = "0.00"]
71--88  [Label = "0.00"]
71--90  [Label = "0.00"]
71--92  [Label = "0.00"]
71--94  [Label = "0.00"]
71--95  [Label = "0.00"]
71--97  [Label = "0.00"]
72--72  [Label = "0.00"]
72--74  [Label = "0.00"]
72--75  [Label = "0.00"]
72--79  [Label = "0.00"]
72--81  [Label = "0.00"]
72--82  [Label = "0.00"]
72--85  [Label = "0.00"]
72--87  [Label = "0.00"]
72--88  [Label = "0.00"]
72--92  [Label = "0.00"]
72--94  [Label = "0.00"]
72--95  [Label = "0.00"]
72--97  [Label = "0.00"]
73--73  [Label = "0.00"]
73--74  [Label = "0.00"]
73--75  [Label = "0.00"]
73--76  [Label = "0.00"]
73--77  [Label = "0.00"]
73--80  [Label = "0.00"]
73--81  [Label = "0.00"]
73--82  [Label = "0.00"]
73--83  [Label = "0.00"]
73--85  [Label = "0.00"]
73--86  [Label = "0.00"]
73--87  [Label = "0.00"]
73--88  [Label = "0.00"]
73--89  [Label = "0.00"]
73--90  [Label = "0.00"]
73--91  [Label = "0.00"]
73--92  [Label = "0.00"]
73--94  [Label = "0.00"]
73--95  [Label = "0.00"]
73--97  [Label = "0.00"]
73--98  [Label = "0.00"]
74--74  [Label = "0.00"]
74--75  [Label = "0.00"]
74--76  [Label = "0.00"]
74--77  [Label = "0.00"]
74--80  [Label = "0.00"]
74--81  [Label = "0.00"]
74--82  [Label = "0.00"]
74--83  [Label = "0.00"]
74--85  [Label = "0.00"]
74--86  [Label = "0.00"]
74--87  [Label = "0.00"]
74--88  [Label = "0.00"]
74--89  [Label = "0.00"]
74--90  [Label = "0.00"]
74--91  [Label = "0.00"]
74--92  [Label = "0.00"]
74--94  [Label = "0.00"]
74--95  [Label = "0.00"]
74--97  [Label = "0.00"]
74--98  [Label = "0.00"]
75--75  [Label = "0.00"]
75--79  [Label = "0.00"]
75--81  [Label = "0.00"]
75--82  [Label = "0.00"]
75--83  [Label = "0.00"]
75--85  [Label = "0.00"]
75--87  [Label = "0.00"]
75--88  [Label = "0.00"]
75--90  [Label = "0.00"]
75--92  [Label = "0.00"]
75--94  [Label = "0.00"]
75--95  [Label = "0.00"]
75--97  [Label = "0.00"]
76--76  [Label = "0.00"]
76--77  [Label = "0.00"]
76--80  [Label = "0.00"]
76--82  [Label = "0.00"]
76--83  [Label = "0.00"]
76--85  [Label = "0.00"]
76--86  [Label = "0.00"]
76--88  [Label = "0.00"]
76--89  [Label = "0.00"]
76--90  [Label = "0.00"]
76--91  [Label = "0.00"]
76--94  [Label = "0.00"]
76--97  [Label = "0.00"]
76--98  [Label = "0.00"]
77--77  [Label = "0.00"]
77--78  [Label = "0.00"]
77--79  [Label = "0.00"]
77--80  [Label = "0.00"]
77--81  [Label = "0.00"]
77--82  [Label = "0.00"]
77--83  [Label = "0.00"]
77--84  [Label = "0.00"]
77--85  [Label = "0.00"]
77--86  [Label = "0.00"]
77--87  [Label = "0.00"]
77--88  [Label = "0.00"]
77--89  [Label = "0.00"]
77--90  [Label = "0.00"]
77--91  [Label = "0.00"]
77--92  [Label = "0.00"]
77--93  [Label = "0.00"]
77--94  [Label = "0.00"]
77--96  [Label = "0.00"]
77--97  [Label = "0.00"]
77--98  [Label = "0.00"]
77--99  [Label = "0.00"]
78--78  [Label = "0.00"]
78--79  [Label = "0.00"]
78--80  [Label = "0.00"]
78--81  [Label = "0.00"]
78--82  [Label = "0.00"]
78--83  [Label = "0.00"]
78--84  [Label = "0.00"]
78--85  [Label = "0.00"]
78--86  [Label = "0.00"]
78--87  [Label = "0.00"]
78--88  [Label = "0.00"]
78--89  [Label = "0.00"]
78--91  [Label = "0.00"]
78--92  [Label = "0.00"]
78--93  [Label = "0.00"]
78--94  [Label = "0.00"]
78--95  [Label = "0.00"]
78--96  [Label = "0.00"]
78--97  [Label = "0.00"]
78--98  [Label = "0.00"]
78--99  [Label = "0.00"]
79--79  [Label = "0.00"]
79--80  [Label = "0.00"]
79--81  [Label = "0.00"]
79--82  [Label = "0.00"]
79--83  [Label = "0.00"]
79--85  [Label = "0.00"]
79--86  [Label = "0.00"]
79--87  [Label = "0.00"]
79--88  [Label = "0.00"]
79--92  [Label = "0.00"]
79--93  [Label = "0.00"]
79--94  [Label = "0.00"]
79--95  [Label = "0.00"]
79--96  [Label = "0.00"]
79--97  [Label = "0.00"]
79--99  [Label = "0.00"]
80--80  [Label = "0.00"]
80--81  [Label = "0.00"]
80--83  [Label = "0.00"]
80--84  [Label = "0.00"]
80--85  [Label = "0.00"]
80--86  [Label = "0.00"]
80--87  [Label = "0.00"]
80--88  [Label = "0.00"]
80--89  [Label = "0.00"]
80--90  [Label = "0.00"]
80--91  [Label = "0.00"]
80--92  [Label = "0.00"]
80--93  [Label = "0.00"]
80--94  [Label = "0.00"]
80--96  [Label = "0.00"]
80--97  [Label = "0.00"]
80--98  [Label = "0.00"]
80--99  [Label = "0.00"]
81--81  [Label = "0.00"]
81--82  [Label = "0.00"]
81--83  [Label = "0.00"]
81--85  [Label = "0.00"]
81--86  [Label = "0.00"]
81--87  [Label = "0.00"]
81--88  [Label = "0.00"]
81--91  [Label = "0.00"]
81--92  [Label = "0.00"]
81--93  [Label = "0.00"]
81--94  [Label = "0.00"]
81--95  [Label = "0.00"]
81--96  [Label = "0.00"]
81--97  [Label = "0.00"]
81--98  [Label = "0.00"]
81--99  [Label = "0.00"]
82--82  [Label = "0.00"]
82--83  [Label = "0.00"]
82--85  [Label = "0.00"]
82--87  [Label = "0.00"]
82--88  [Label = "0.00"]
82--90  [Label = "0.00"]
82--92  [Label = "0.00"]
82--94  [Label = "0.00"]
82--95  [Label = "0.00"]
82--97  [Label = "0.00"]
82--99  [Label = "0.00"]
83--83  [Label = "0.00"]
83--84  [Label = "0.00"]
83--85  [Label = "0.00"]
83--86  [Label = "0.00"]
83--87  [Label = "0.00"]
83--88  [Label = "0.00"]
83--89  [Label = "0.00"]
83--90  [Label = "0.00"]
83--91  [Label = "0.00"]
83--92  [Label = "0.00"]
83--93  [Label = "0.00"]
83--94  [Label = "0.00"]
83--96  [Label = "0.00"]
83--97  [Label = "0.00"]
83--98  [Label = "0.00"]
83--99  [Label = "0.00"]
84--84  [Label = "0.00"]
84--85  [Label = "0.00"]
84--86  [Label = "0.00"]
84--87  [Label = "0.00"]
84--88  [Label = "0.00"]
84--89  [Label = "0.00"]
84--91  [Label = "0.00"]
84--93  [Label = "0.00"]
84--96  [Label = "0.00"]
84--97  [Label = "0.00"]
84--98  [Label = "0.00"]
84--99  [Label = "0.00"]
85--85  [Label = "0.00"]
85--86  [Label = "0.00"]
85--87  [Label = "0.00"]
85--88  [Label = "0.00"]
85--89  [Label = "0.00"]
85--90  [Label = "0.00"]
85--91  [Label = "0.00"]
85--92  [Label = "0.00"]
85--93  [Label = "0.00"]
85--94  [Label = "0.00"]
85--95  [Label = "0.00"]
85--96  [Label = "0.00"]
85--97  [Label = "0.00"]
85--98  [Label = "0.00"]
85--99  [Label = "0.00"]
86--86  [Label = "0.00"]
86--87  [Label = "0.00"]
86--88  [Label = "0.00"]
86--89  [Label = "0.00"]
86--90  [Label = "0.00"]
86--91  [Label = "0.00"]
86--92  [Label = "0.00"]
86--93  [Label = "0.00"]
86--94  [Label = "0.00"]
86--96  [Label = "0.00"]
86--97  [Label = "0.00"]
86--98  [Label = "0.00"]
86--99  [Label = "0.00"]
87--87  [Label = "0.00"]
87--88  [Label = "0.00"]
87--89  [Label = "0.00"]
87--90  [Label = "0.00"]
87--91  [Label = "0.00"]
87--92  [Label = "0.00"]
87--93  [Label = "0.00"]
87--94  [Label = "0.00"]
87--95  [Label = "0.00"]
87--96  [Label = "0.00"]
87--97  [Label = "0.00"]
87--98  [Label = "0.00"]
87--99  [Label = "0.00"]
88--88  [Label = "0.00"]
88--89  [Label = "0.00"]
88--90  [Label = "0.00"]
88--91  [Label = "0.00"]
88--92  [Label = "0.00"]
88--93  [Label = "0.00"]
88--94  [Label = "0.00"]
88--95  [Label = "0.00"]
88--96  [Label = "0.00"]
88--97  [Label = "0.00"]
88--98  [Label = "0.00"]
88--99  [Label = "0.00"]
89--89  [Label = "0.00"]
89--90  [Label = "0.00"]
89--91  [Label = "0.00"]
89--94  [Label = "0.00"]
89--96  [Label = "0.00"]
89--97  [Label = "0.00"]
89--98  [Label = "0.00"]
89--99  [Label = "0.00"]
90--90  [Label = "0.00"]
90--91  [Label = "0.00"]
90--94  [Label = "0.00"]
90--97  [Label = "0.00"]
90--98  [Label = "0.00"]
91--91  [Label = "0.00"]
91--92  [Label = "0.00"]
91--94  [Label = "0.00"]
91--96  [Label = "0.00"]
91--97  [Label = "0.00"]
91--98  [Label = "0.00"]
91--99  [Label = "0.00"]
92--92  [Label = "0.00"]
92--93  [Label = "0.00"]
92--94  [Label = "0.00"]
92--95  [Label = "0.00"]
92--96  [Label = "0.00"]
92--97  [Label = "0.00"]
92--98  [Label = "0.00"]
92--99  [Label = "0.00"]
93--93  [Label = "0.00"]
93--94  [Label = "0.00"]
93--95  [Label = "0.00"]
93--96  [Label = "0.00"]
93--97  [Label = "0.00"]
93--99  [Label = "0.00"]
94--94  [Label = "0.00"]
94--95  [Label = "0.00"]
94--96  [Label = "0.00"]
94--97  [Label = "0.00"]
94--98  [Label = "0.00"]
94--99  [Label = "0.00"]
95--95  [Label = "0.00"]
95--96  [Label = "0.00"]
95--97  [Label = "0.00"]
95--99  [Label = "0.00"]
96--96  [Label = "0.00"]
96--97  [Label = "0.00"]
96--98  [Label = "0.00"]
96--99  [Label = "0.00"]
97--97  [Label = "0.00"]
97--98  [Label = "0.00"]
97--99  [Label = "0.00"]
98--98  [Label = "0.00"]
98--99  [Label = "0.00"]
99--99  [Label = "0.00"]
}
